[
  {
    "_entityName": "sec$Role",
    "id": "314a01ea-1792-bcf9-1103-6fa80a3bd860",
    "securityScope": "GENERIC_UI",
    "locName": "SMS-Maker",
    "type": "STANDARD",
    "version": 1,
    "locSecurityScope": "Generic UI",
    "permissions": [
      {
        "_entityName": "sec$Permission",
        "id": "12518600-307b-606c-5d27-387b3d67367d",
        "role": {
          "_entityName": "sec$Role",
          "id": "314a01ea-1792-bcf9-1103-6fa80a3bd860"
        },
        "type": "SCREEN",
        "version": 1,
        "value": 0,
        "target": "centralinfo_Issuer.browse"
      },
      {
        "_entityName": "sec$Permission",
        "id": "523ecc0f-7c53-2061-35ba-3b272be0247c",
        "role": {
          "_entityName": "sec$Role",
          "id": "314a01ea-1792-bcf9-1103-6fa80a3bd860"
        },
        "type": "ENTITY_ATTR",
        "version": 1,
        "value": 2,
        "target": "sec$Role:deletedBy"
      },
      {
        "_entityName": "sec$Permission",
        "id": "2742ccc5-5c0f-06df-ea5a-6088e21e8b99",
        "role": {
          "_entityName": "sec$Role",
          "id": "314a01ea-1792-bcf9-1103-6fa80a3bd860"
        },
        "type": "ENTITY_ATTR",
        "version": 1,
        "value": 2,
        "target": "sec$User:substitutions"
      },
      {
        "_entityName": "sec$Permission",
        "id": "bed1eec2-7b0d-d256-3bfd-ba86a6aff098",
        "role": {
          "_entityName": "sec$Role",
          "id": "314a01ea-1792-bcf9-1103-6fa80a3bd860"
        },
        "type": "ENTITY_ATTR",
        "version": 1,
        "value": 2,
        "target": "sec$Group:updateTs"
      },
      {
        "_entityName": "sec$Permission",
        "id": "91dc0e43-a871-5521-8af8-b7f3eaeb0529",
        "role": {
          "_entityName": "sec$Role",
          "id": "314a01ea-1792-bcf9-1103-6fa80a3bd860"
        },
        "type": "ENTITY_ATTR",
        "version": 1,
        "value": 2,
        "target": "centralinfo_Users:group"
      },
      {
        "_entityName": "sec$Permission",
        "id": "abde13f4-e8ae-9238-bf8c-d3766e326572",
        "role": {
          "_entityName": "sec$Role",
          "id": "314a01ea-1792-bcf9-1103-6fa80a3bd860"
        },
        "type": "ENTITY_ATTR",
        "version": 1,
        "value": 2,
        "target": "sec$Role:type"
      },
      {
        "_entityName": "sec$Permission",
        "id": "865f973b-abae-4ff8-0696-3255c411b2ea",
        "role": {
          "_entityName": "sec$Role",
          "id": "314a01ea-1792-bcf9-1103-6fa80a3bd860"
        },
        "type": "SCREEN",
        "version": 1,
        "value": 1,
        "target": "application-centralinfo"
      },
      {
        "_entityName": "sec$Permission",
        "id": "9f297953-c893-32c1-2b36-fee46cee641e",
        "role": {
          "_entityName": "sec$Role",
          "id": "314a01ea-1792-bcf9-1103-6fa80a3bd860"
        },
        "type": "SPECIFIC",
        "version": 1,
        "value": 1,
        "target": "*"
      },
      {
        "_entityName": "sec$Permission",
        "id": "4a0ea86b-3c4b-d892-4e04-fb69aca95c72",
        "role": {
          "_entityName": "sec$Role",
          "id": "314a01ea-1792-bcf9-1103-6fa80a3bd860"
        },
        "type": "ENTITY_ATTR",
        "version": 1,
        "value": 2,
        "target": "centralinfo_Users:roles"
      },
      {
        "_entityName": "sec$Permission",
        "id": "32913abb-1e2d-5bfd-6612-30bb0f935bca",
        "role": {
          "_entityName": "sec$Role",
          "id": "314a01ea-1792-bcf9-1103-6fa80a3bd860"
        },
        "type": "ENTITY_OP",
        "version": 1,
        "value": 1,
        "target": "centralinfo_Users:create"
      },
      {
        "_entityName": "sec$Permission",
        "id": "3cf85837-436f-ff82-a7ba-6d1103a68324",
        "role": {
          "_entityName": "sec$Role",
          "id": "314a01ea-1792-bcf9-1103-6fa80a3bd860"
        },
        "type": "ENTITY_OP",
        "version": 1,
        "value": 1,
        "target": "centralinfo_UserRole:create"
      },
      {
        "_entityName": "sec$Permission",
        "id": "3b36b62e-3eed-c76a-764f-1ab021b39ac3",
        "role": {
          "_entityName": "sec$Role",
          "id": "314a01ea-1792-bcf9-1103-6fa80a3bd860"
        },
        "type": "ENTITY_ATTR",
        "version": 1,
        "value": 2,
        "target": "sec$Role:sysTenantId"
      },
      {
        "_entityName": "sec$Permission",
        "id": "d5ff8ebb-e8ff-fa70-fd4c-f981e9b710a0",
        "role": {
          "_entityName": "sec$Role",
          "id": "314a01ea-1792-bcf9-1103-6fa80a3bd860"
        },
        "type": "ENTITY_ATTR",
        "version": 1,
        "value": 2,
        "target": "centralinfo_Users:updateTs"
      },
      {
        "_entityName": "sec$Permission",
        "id": "6506c8cf-36c8-4846-3061-df29d880b89d",
        "role": {
          "_entityName": "sec$Role",
          "id": "314a01ea-1792-bcf9-1103-6fa80a3bd860"
        },
        "type": "ENTITY_ATTR",
        "version": 1,
        "value": 2,
        "target": "sec$User:changePasswordAtNextLogon"
      },
      {
        "_entityName": "sec$Permission",
        "id": "a06a2012-e577-4b40-44a0-44874846ce3d",
        "role": {
          "_entityName": "sec$Role",
          "id": "314a01ea-1792-bcf9-1103-6fa80a3bd860"
        },
        "type": "ENTITY_ATTR",
        "version": 1,
        "value": 2,
        "target": "sec$Role:permissions"
      },
      {
        "_entityName": "sec$Permission",
        "id": "db3dbcd9-7ade-b803-3775-82e9d313c4a3",
        "role": {
          "_entityName": "sec$Role",
          "id": "314a01ea-1792-bcf9-1103-6fa80a3bd860"
        },
        "type": "ENTITY_OP",
        "version": 1,
        "value": 1,
        "target": "sec$User:update"
      },
      {
        "_entityName": "sec$Permission",
        "id": "7ed05369-3448-4c51-bb12-8e13f3676cd1",
        "role": {
          "_entityName": "sec$Role",
          "id": "314a01ea-1792-bcf9-1103-6fa80a3bd860"
        },
        "type": "ENTITY_ATTR",
        "version": 1,
        "value": 2,
        "target": "sec$User:timeZone"
      },
      {
        "_entityName": "sec$Permission",
        "id": "70d1c893-3be4-e3be-9c1b-c0990af53f77",
        "role": {
          "_entityName": "sec$Role",
          "id": "314a01ea-1792-bcf9-1103-6fa80a3bd860"
        },
        "type": "SCREEN",
        "version": 1,
        "value": 1,
        "target": "*"
      },
      {
        "_entityName": "sec$Permission",
        "id": "5a4f223c-c7c9-03e1-3bb3-7262ac2f5fbd",
        "role": {
          "_entityName": "sec$Role",
          "id": "314a01ea-1792-bcf9-1103-6fa80a3bd860"
        },
        "type": "ENTITY_OP",
        "version": 1,
        "value": 1,
        "target": "sec$Group:update"
      },
      {
        "_entityName": "sec$Permission",
        "id": "7a81d915-b32e-4636-a8dc-752abd5bb938",
        "role": {
          "_entityName": "sec$Role",
          "id": "314a01ea-1792-bcf9-1103-6fa80a3bd860"
        },
        "type": "ENTITY_OP",
        "version": 1,
        "value": 1,
        "target": "centralinfo_UserRole:read"
      },
      {
        "_entityName": "sec$Permission",
        "id": "fdbf796f-48db-50f7-8dec-9ecac05f3e9f",
        "role": {
          "_entityName": "sec$Role",
          "id": "314a01ea-1792-bcf9-1103-6fa80a3bd860"
        },
        "type": "ENTITY_ATTR",
        "version": 1,
        "value": 2,
        "target": "sec$Role:securityScope"
      },
      {
        "_entityName": "sec$Permission",
        "id": "4b42819d-9eba-d138-d468-9a5480953cee",
        "role": {
          "_entityName": "sec$Role",
          "id": "314a01ea-1792-bcf9-1103-6fa80a3bd860"
        },
        "type": "ENTITY_ATTR",
        "version": 1,
        "value": 2,
        "target": "sec$Group:version"
      },
      {
        "_entityName": "sec$Permission",
        "id": "188b5120-a1f2-f47d-f63a-1ada47d9a407",
        "role": {
          "_entityName": "sec$Role",
          "id": "314a01ea-1792-bcf9-1103-6fa80a3bd860"
        },
        "type": "ENTITY_ATTR",
        "version": 1,
        "value": 2,
        "target": "sec$Group:constraints"
      },
      {
        "_entityName": "sec$Permission",
        "id": "69219b0c-1b58-9401-9a9f-f36a714eedd0",
        "role": {
          "_entityName": "sec$Role",
          "id": "314a01ea-1792-bcf9-1103-6fa80a3bd860"
        },
        "type": "ENTITY_ATTR",
        "version": 1,
        "value": 2,
        "target": "centralinfo_UserRole:deleteTs"
      },
      {
        "_entityName": "sec$Permission",
        "id": "fae75ab7-e76e-3a5c-65fd-af3e6979f9f8",
        "role": {
          "_entityName": "sec$Role",
          "id": "314a01ea-1792-bcf9-1103-6fa80a3bd860"
        },
        "type": "SCREEN",
        "version": 1,
        "value": 0,
        "target": "centralinfo_AgentBank.browse"
      },
      {
        "_entityName": "sec$Permission",
        "id": "223065f9-55eb-c786-0c8e-3f1497d8c9c0",
        "role": {
          "_entityName": "sec$Role",
          "id": "314a01ea-1792-bcf9-1103-6fa80a3bd860"
        },
        "type": "ENTITY_OP",
        "version": 1,
        "value": 1,
        "target": "sec$User:delete"
      },
      {
        "_entityName": "sec$Permission",
        "id": "b891d3bd-5593-4b4a-aaca-33c25bbe0368",
        "role": {
          "_entityName": "sec$Role",
          "id": "314a01ea-1792-bcf9-1103-6fa80a3bd860"
        },
        "type": "ENTITY_ATTR",
        "version": 1,
        "value": 2,
        "target": "centralinfo_Users:status"
      },
      {
        "_entityName": "sec$Permission",
        "id": "313091e9-b419-3a53-bdcc-fcc3799ccf31",
        "role": {
          "_entityName": "sec$Role",
          "id": "314a01ea-1792-bcf9-1103-6fa80a3bd860"
        },
        "type": "ENTITY_ATTR",
        "version": 1,
        "value": 2,
        "target": "centralinfo_UserRole:createTs"
      },
      {
        "_entityName": "sec$Permission",
        "id": "7edfcee7-1869-0fdc-e506-8ef7f8ebfea3",
        "role": {
          "_entityName": "sec$Role",
          "id": "314a01ea-1792-bcf9-1103-6fa80a3bd860"
        },
        "type": "UI",
        "version": 1,
        "value": 0,
        "target": "centralinfo_Users.browse:rejectBTn"
      },
      {
        "_entityName": "sec$Permission",
        "id": "68356c27-2f86-7bee-46d1-f659909f6b5a",
        "role": {
          "_entityName": "sec$Role",
          "id": "314a01ea-1792-bcf9-1103-6fa80a3bd860"
        },
        "type": "SCREEN",
        "version": 1,
        "value": 0,
        "target": "centralinfo_CustomerJionedLoan.browse"
      },
      {
        "_entityName": "sec$Permission",
        "id": "d3eba4ac-87ba-4168-c8b9-5f54d2b583f6",
        "role": {
          "_entityName": "sec$Role",
          "id": "314a01ea-1792-bcf9-1103-6fa80a3bd860"
        },
        "type": "ENTITY_ATTR",
        "version": 1,
        "value": 2,
        "target": "centralinfo_UserRole:usersId"
      },
      {
        "_entityName": "sec$Permission",
        "id": "d51fe58c-9d73-fd0a-9b5c-dc379c5452ee",
        "role": {
          "_entityName": "sec$Role",
          "id": "314a01ea-1792-bcf9-1103-6fa80a3bd860"
        },
        "type": "ENTITY_ATTR",
        "version": 1,
        "value": 2,
        "target": "centralinfo_UserRole:version"
      },
      {
        "_entityName": "sec$Permission",
        "id": "09e46941-3bf3-68a9-9f48-f6ab4537da10",
        "role": {
          "_entityName": "sec$Role",
          "id": "314a01ea-1792-bcf9-1103-6fa80a3bd860"
        },
        "type": "ENTITY_OP",
        "version": 1,
        "value": 1,
        "target": "sec$Group:create"
      },
      {
        "_entityName": "sec$Permission",
        "id": "f9d78025-a4c6-f486-ace9-3ec065358491",
        "role": {
          "_entityName": "sec$Role",
          "id": "314a01ea-1792-bcf9-1103-6fa80a3bd860"
        },
        "type": "ENTITY_ATTR",
        "version": 1,
        "value": 2,
        "target": "sec$Group:sysTenantId"
      },
      {
        "_entityName": "sec$Permission",
        "id": "3659f01d-4f08-c0a7-e004-023fcdedc102",
        "role": {
          "_entityName": "sec$Role",
          "id": "314a01ea-1792-bcf9-1103-6fa80a3bd860"
        },
        "type": "SCREEN",
        "version": 1,
        "value": 0,
        "target": "centralinfo_CustomerSuppliers.browse"
      },
      {
        "_entityName": "sec$Permission",
        "id": "9b7b611c-4e5b-a57c-d8ea-567a314b4cd9",
        "role": {
          "_entityName": "sec$Role",
          "id": "314a01ea-1792-bcf9-1103-6fa80a3bd860"
        },
        "type": "ENTITY_OP",
        "version": 1,
        "value": 1,
        "target": "centralinfo_Users:update"
      },
      {
        "_entityName": "sec$Permission",
        "id": "d2483039-0bb0-e5de-1ff2-5418d02c699a",
        "role": {
          "_entityName": "sec$Role",
          "id": "314a01ea-1792-bcf9-1103-6fa80a3bd860"
        },
        "type": "ENTITY_ATTR",
        "version": 1,
        "value": 2,
        "target": "sec$Group:createTs"
      },
      {
        "_entityName": "sec$Permission",
        "id": "e479ecc8-44e3-3ae8-9779-c235c48f773f",
        "role": {
          "_entityName": "sec$Role",
          "id": "314a01ea-1792-bcf9-1103-6fa80a3bd860"
        },
        "type": "ENTITY_OP",
        "version": 1,
        "value": 1,
        "target": "sec$Role:delete"
      },
      {
        "_entityName": "sec$Permission",
        "id": "e89cb04c-647a-808f-b72f-4c87703f93f5",
        "role": {
          "_entityName": "sec$Role",
          "id": "314a01ea-1792-bcf9-1103-6fa80a3bd860"
        },
        "type": "SCREEN",
        "version": 1,
        "value": 0,
        "target": "centralinfo_IndebtedCustomers.browse"
      },
      {
        "_entityName": "sec$Permission",
        "id": "16522434-79e9-3f17-382a-08d1981a133e",
        "role": {
          "_entityName": "sec$Role",
          "id": "314a01ea-1792-bcf9-1103-6fa80a3bd860"
        },
        "type": "ENTITY_ATTR",
        "version": 1,
        "value": 2,
        "target": "centralinfo_UserRole:roleId"
      },
      {
        "_entityName": "sec$Permission",
        "id": "4b59e402-bc9f-d14d-bb01-fcaaa49a1bf1",
        "role": {
          "_entityName": "sec$Role",
          "id": "314a01ea-1792-bcf9-1103-6fa80a3bd860"
        },
        "type": "ENTITY_ATTR",
        "version": 1,
        "value": 2,
        "target": "centralinfo_UserRole:roleName"
      },
      {
        "_entityName": "sec$Permission",
        "id": "35933cc2-ec3c-d7e4-64f9-e5711065a82e",
        "role": {
          "_entityName": "sec$Role",
          "id": "314a01ea-1792-bcf9-1103-6fa80a3bd860"
        },
        "type": "SCREEN",
        "version": 1,
        "value": 0,
        "target": "centralinfo_BondSuppliers.browse"
      },
      {
        "_entityName": "sec$Permission",
        "id": "a462ee86-615e-bbcc-9ee4-7142e8a5493e",
        "role": {
          "_entityName": "sec$Role",
          "id": "314a01ea-1792-bcf9-1103-6fa80a3bd860"
        },
        "type": "ENTITY_OP",
        "version": 1,
        "value": 1,
        "target": "sec$User:read"
      },
      {
        "_entityName": "sec$Permission",
        "id": "eede4c58-b086-a40f-e792-9189f13f2979",
        "role": {
          "_entityName": "sec$Role",
          "id": "314a01ea-1792-bcf9-1103-6fa80a3bd860"
        },
        "type": "ENTITY_ATTR",
        "version": 1,
        "value": 2,
        "target": "centralinfo_UserRole:updateTs"
      },
      {
        "_entityName": "sec$Permission",
        "id": "e39b4e21-0cbd-9732-11fe-305682aeeb66",
        "role": {
          "_entityName": "sec$Role",
          "id": "314a01ea-1792-bcf9-1103-6fa80a3bd860"
        },
        "type": "ENTITY_ATTR",
        "version": 1,
        "value": 2,
        "target": "sec$User:passwordEncryption"
      },
      {
        "_entityName": "sec$Permission",
        "id": "a5853a6c-25b8-377b-42d7-0279902625f4",
        "role": {
          "_entityName": "sec$Role",
          "id": "314a01ea-1792-bcf9-1103-6fa80a3bd860"
        },
        "type": "ENTITY_ATTR",
        "version": 1,
        "value": 2,
        "target": "sec$User:sysTenantId"
      },
      {
        "_entityName": "sec$Permission",
        "id": "3aae5595-9d8b-1fa9-f0eb-561f8798d823",
        "role": {
          "_entityName": "sec$Role",
          "id": "314a01ea-1792-bcf9-1103-6fa80a3bd860"
        },
        "type": "ENTITY_ATTR",
        "version": 1,
        "value": 2,
        "target": "centralinfo_Users:lastLoginDate"
      },
      {
        "_entityName": "sec$Permission",
        "id": "c6f63c46-137a-4615-e51c-6baa558de7bf",
        "role": {
          "_entityName": "sec$Role",
          "id": "314a01ea-1792-bcf9-1103-6fa80a3bd860"
        },
        "type": "ENTITY_ATTR",
        "version": 1,
        "value": 2,
        "target": "sec$Role:deleteTs"
      },
      {
        "_entityName": "sec$Permission",
        "id": "592de2b6-c1c1-9383-9ff8-8dde7a64c8c4",
        "role": {
          "_entityName": "sec$Role",
          "id": "314a01ea-1792-bcf9-1103-6fa80a3bd860"
        },
        "type": "SCREEN",
        "version": 1,
        "value": 0,
        "target": "centralinfo_CustomerBase.browse"
      },
      {
        "_entityName": "sec$Permission",
        "id": "591c11cf-3dc5-a626-98f1-a40f29866b29",
        "role": {
          "_entityName": "sec$Role",
          "id": "314a01ea-1792-bcf9-1103-6fa80a3bd860"
        },
        "type": "ENTITY_ATTR",
        "version": 1,
        "value": 2,
        "target": "sec$Role:locName"
      },
      {
        "_entityName": "sec$Permission",
        "id": "9357ab04-33ae-f679-a368-f77a80d81a2f",
        "role": {
          "_entityName": "sec$Role",
          "id": "314a01ea-1792-bcf9-1103-6fa80a3bd860"
        },
        "type": "ENTITY_ATTR",
        "version": 1,
        "value": 2,
        "target": "sec$User:group"
      },
      {
        "_entityName": "sec$Permission",
        "id": "3915cbc5-f8f2-95f9-acb2-5e63ebed8084",
        "role": {
          "_entityName": "sec$Role",
          "id": "314a01ea-1792-bcf9-1103-6fa80a3bd860"
        },
        "type": "ENTITY_ATTR",
        "version": 1,
        "value": 2,
        "target": "sec$User:password"
      },
      {
        "_entityName": "sec$Permission",
        "id": "b223173d-df4c-f483-65cb-cbe9c76caefb",
        "role": {
          "_entityName": "sec$Role",
          "id": "314a01ea-1792-bcf9-1103-6fa80a3bd860"
        },
        "type": "ENTITY_ATTR",
        "version": 1,
        "value": 2,
        "target": "sec$User:updateTs"
      },
      {
        "_entityName": "sec$Permission",
        "id": "345c26c1-7b64-6509-7014-8a083fb4233c",
        "role": {
          "_entityName": "sec$Role",
          "id": "314a01ea-1792-bcf9-1103-6fa80a3bd860"
        },
        "type": "ENTITY_ATTR",
        "version": 1,
        "value": 2,
        "target": "centralinfo_Users:allRolesInString"
      },
      {
        "_entityName": "sec$Permission",
        "id": "0017d90f-5f58-c631-a5ed-0af15137c13f",
        "role": {
          "_entityName": "sec$Role",
          "id": "314a01ea-1792-bcf9-1103-6fa80a3bd860"
        },
        "type": "ENTITY_ATTR",
        "version": 1,
        "value": 2,
        "target": "sec$User:name"
      },
      {
        "_entityName": "sec$Permission",
        "id": "c6dc1ccb-de92-b723-f19b-72360046e528",
        "role": {
          "_entityName": "sec$Role",
          "id": "314a01ea-1792-bcf9-1103-6fa80a3bd860"
        },
        "type": "ENTITY_ATTR",
        "version": 1,
        "value": 2,
        "target": "centralinfo_Users:updatedBy"
      },
      {
        "_entityName": "sec$Permission",
        "id": "f7bd8d40-53b7-ece6-2e8c-8efb62ae9910",
        "role": {
          "_entityName": "sec$Role",
          "id": "314a01ea-1792-bcf9-1103-6fa80a3bd860"
        },
        "type": "SCREEN",
        "version": 1,
        "value": 0,
        "target": "centralinfo_Debt_Settlements.browse"
      },
      {
        "_entityName": "sec$Permission",
        "id": "d26622ea-d20e-3af9-7efb-7830a6866553",
        "role": {
          "_entityName": "sec$Role",
          "id": "314a01ea-1792-bcf9-1103-6fa80a3bd860"
        },
        "type": "ENTITY_ATTR",
        "version": 1,
        "value": 2,
        "target": "sec$Group:createdBy"
      },
      {
        "_entityName": "sec$Permission",
        "id": "0b44fbb6-df9e-6fc1-04b1-22e72afa7071",
        "role": {
          "_entityName": "sec$Role",
          "id": "314a01ea-1792-bcf9-1103-6fa80a3bd860"
        },
        "type": "ENTITY_ATTR",
        "version": 1,
        "value": 2,
        "target": "sec$Group:hierarchyList"
      },
      {
        "_entityName": "sec$Permission",
        "id": "a6595fde-c8d0-c0d3-ae0a-1b8d9e2dae5f",
        "role": {
          "_entityName": "sec$Role",
          "id": "314a01ea-1792-bcf9-1103-6fa80a3bd860"
        },
        "type": "ENTITY_ATTR",
        "version": 1,
        "value": 2,
        "target": "sec$User:updatedBy"
      },
      {
        "_entityName": "sec$Permission",
        "id": "8ab28922-a330-0320-42cf-f6b6d66bb5e3",
        "role": {
          "_entityName": "sec$Role",
          "id": "314a01ea-1792-bcf9-1103-6fa80a3bd860"
        },
        "type": "ENTITY_ATTR",
        "version": 1,
        "value": 2,
        "target": "sec$User:version"
      },
      {
        "_entityName": "sec$Permission",
        "id": "11694d7e-b34e-5196-59aa-64855f12f780",
        "role": {
          "_entityName": "sec$Role",
          "id": "314a01ea-1792-bcf9-1103-6fa80a3bd860"
        },
        "type": "ENTITY_ATTR",
        "version": 1,
        "value": 2,
        "target": "centralinfo_Users:active"
      },
      {
        "_entityName": "sec$Permission",
        "id": "d6ad331b-df3c-d50f-b53d-8705f22f40e0",
        "role": {
          "_entityName": "sec$Role",
          "id": "314a01ea-1792-bcf9-1103-6fa80a3bd860"
        },
        "type": "ENTITY_ATTR",
        "version": 1,
        "value": 2,
        "target": "sec$Role:locSecurityScope"
      },
      {
        "_entityName": "sec$Permission",
        "id": "5e83907a-3b48-dc37-9136-16d570ab3dbc",
        "role": {
          "_entityName": "sec$Role",
          "id": "314a01ea-1792-bcf9-1103-6fa80a3bd860"
        },
        "type": "ENTITY_ATTR",
        "version": 1,
        "value": 2,
        "target": "sec$User:id"
      },
      {
        "_entityName": "sec$Permission",
        "id": "a8b888fb-3ade-9428-74c5-ba49d9dbd19b",
        "role": {
          "_entityName": "sec$Role",
          "id": "314a01ea-1792-bcf9-1103-6fa80a3bd860"
        },
        "type": "ENTITY_ATTR",
        "version": 1,
        "value": 2,
        "target": "sec$User:lastName"
      },
      {
        "_entityName": "sec$Permission",
        "id": "09db385e-cb12-8575-4db1-615fe124e852",
        "role": {
          "_entityName": "sec$Role",
          "id": "314a01ea-1792-bcf9-1103-6fa80a3bd860"
        },
        "type": "ENTITY_ATTR",
        "version": 1,
        "value": 2,
        "target": "sec$Role:createdBy"
      },
      {
        "_entityName": "sec$Permission",
        "id": "835b0db9-b3f0-fa3c-ef50-c3db62f0a028",
        "role": {
          "_entityName": "sec$Role",
          "id": "314a01ea-1792-bcf9-1103-6fa80a3bd860"
        },
        "type": "ENTITY_ATTR",
        "version": 1,
        "value": 2,
        "target": "centralinfo_UserRole:deletedBy"
      },
      {
        "_entityName": "sec$Permission",
        "id": "598bc05e-c79c-6693-a213-6434783af7b9",
        "role": {
          "_entityName": "sec$Role",
          "id": "314a01ea-1792-bcf9-1103-6fa80a3bd860"
        },
        "type": "SCREEN",
        "version": 1,
        "value": 0,
        "target": "centralinfo_CompanyName.browse"
      },
      {
        "_entityName": "sec$Permission",
        "id": "ad5cdf6e-2543-9685-68d9-8fb1abb03baa",
        "role": {
          "_entityName": "sec$Role",
          "id": "314a01ea-1792-bcf9-1103-6fa80a3bd860"
        },
        "type": "ENTITY_ATTR",
        "version": 1,
        "value": 2,
        "target": "sec$Role:version"
      },
      {
        "_entityName": "sec$Permission",
        "id": "420187ab-31d5-2f64-eb54-bd2eabba8253",
        "role": {
          "_entityName": "sec$Role",
          "id": "314a01ea-1792-bcf9-1103-6fa80a3bd860"
        },
        "type": "ENTITY_OP",
        "version": 1,
        "value": 1,
        "target": "sec$Role:create"
      },
      {
        "_entityName": "sec$Permission",
        "id": "b313b594-0482-6af5-0768-600a6fb8cea1",
        "role": {
          "_entityName": "sec$Role",
          "id": "314a01ea-1792-bcf9-1103-6fa80a3bd860"
        },
        "type": "ENTITY_ATTR",
        "version": 1,
        "value": 2,
        "target": "sec$User:createTs"
      },
      {
        "_entityName": "sec$Permission",
        "id": "7640d71c-0b62-6c2c-b324-8add0a2bbc4b",
        "role": {
          "_entityName": "sec$Role",
          "id": "314a01ea-1792-bcf9-1103-6fa80a3bd860"
        },
        "type": "ENTITY_ATTR",
        "version": 1,
        "value": 2,
        "target": "sec$User:firstName"
      },
      {
        "_entityName": "sec$Permission",
        "id": "526e3369-34ba-9970-bd54-d1987efdda70",
        "role": {
          "_entityName": "sec$Role",
          "id": "314a01ea-1792-bcf9-1103-6fa80a3bd860"
        },
        "type": "ENTITY_ATTR",
        "version": 1,
        "value": 2,
        "target": "sec$User:active"
      },
      {
        "_entityName": "sec$Permission",
        "id": "972ed017-5123-5602-3d52-b9d922ef43f0",
        "role": {
          "_entityName": "sec$Role",
          "id": "314a01ea-1792-bcf9-1103-6fa80a3bd860"
        },
        "type": "ENTITY_OP",
        "version": 1,
        "value": 1,
        "target": "sec$User:create"
      },
      {
        "_entityName": "sec$Permission",
        "id": "b2f14016-800f-9f73-9ccf-637db06cf4ca",
        "role": {
          "_entityName": "sec$Role",
          "id": "314a01ea-1792-bcf9-1103-6fa80a3bd860"
        },
        "type": "ENTITY_OP",
        "version": 1,
        "value": 1,
        "target": "centralinfo_Users:read"
      },
      {
        "_entityName": "sec$Permission",
        "id": "d4831200-1ca7-d00d-a530-38b012d82ee0",
        "role": {
          "_entityName": "sec$Role",
          "id": "314a01ea-1792-bcf9-1103-6fa80a3bd860"
        },
        "type": "ENTITY_ATTR",
        "version": 1,
        "value": 2,
        "target": "centralinfo_Users:name"
      },
      {
        "_entityName": "sec$Permission",
        "id": "64aa9c38-7371-c3f4-bc0a-1509ae18e39e",
        "role": {
          "_entityName": "sec$Role",
          "id": "314a01ea-1792-bcf9-1103-6fa80a3bd860"
        },
        "type": "ENTITY_ATTR",
        "version": 1,
        "value": 2,
        "target": "centralinfo_UserRole:role"
      },
      {
        "_entityName": "sec$Permission",
        "id": "0c961931-6472-6122-9cdc-39f5a60b1a47",
        "role": {
          "_entityName": "sec$Role",
          "id": "314a01ea-1792-bcf9-1103-6fa80a3bd860"
        },
        "type": "ENTITY_ATTR",
        "version": 1,
        "value": 2,
        "target": "sec$User:groupNames"
      },
      {
        "_entityName": "sec$Permission",
        "id": "062d265c-9255-b457-e8f1-115997484207",
        "role": {
          "_entityName": "sec$Role",
          "id": "314a01ea-1792-bcf9-1103-6fa80a3bd860"
        },
        "type": "ENTITY_ATTR",
        "version": 1,
        "value": 2,
        "target": "sec$User:deleteTs"
      },
      {
        "_entityName": "sec$Permission",
        "id": "2eba22fc-5cae-1048-5f7d-403b994ae139",
        "role": {
          "_entityName": "sec$Role",
          "id": "314a01ea-1792-bcf9-1103-6fa80a3bd860"
        },
        "type": "ENTITY_ATTR",
        "version": 1,
        "value": 2,
        "target": "sec$Role:id"
      },
      {
        "_entityName": "sec$Permission",
        "id": "4d94a440-499d-afac-73d2-3e9d35d9ebe9",
        "role": {
          "_entityName": "sec$Role",
          "id": "314a01ea-1792-bcf9-1103-6fa80a3bd860"
        },
        "type": "ENTITY_ATTR",
        "version": 1,
        "value": 2,
        "target": "sec$User:middleName"
      },
      {
        "_entityName": "sec$Permission",
        "id": "2398f9de-f872-06f2-9b91-0a3b6e5d02ab",
        "role": {
          "_entityName": "sec$Role",
          "id": "314a01ea-1792-bcf9-1103-6fa80a3bd860"
        },
        "type": "ENTITY_ATTR",
        "version": 1,
        "value": 2,
        "target": "sec$Group:sessionAttributes"
      },
      {
        "_entityName": "sec$Permission",
        "id": "a9447494-4289-84df-c265-831335aa13c1",
        "role": {
          "_entityName": "sec$Role",
          "id": "314a01ea-1792-bcf9-1103-6fa80a3bd860"
        },
        "type": "ENTITY_ATTR",
        "version": 1,
        "value": 2,
        "target": "sec$Role:updateTs"
      },
      {
        "_entityName": "sec$Permission",
        "id": "8339c10c-1582-e3bd-cfb3-036064260f63",
        "role": {
          "_entityName": "sec$Role",
          "id": "314a01ea-1792-bcf9-1103-6fa80a3bd860"
        },
        "type": "SCREEN",
        "version": 1,
        "value": 0,
        "target": "centralinformation_Branch.browse"
      },
      {
        "_entityName": "sec$Permission",
        "id": "da35b3f0-0940-0ef5-5ef5-207581eff582",
        "role": {
          "_entityName": "sec$Role",
          "id": "314a01ea-1792-bcf9-1103-6fa80a3bd860"
        },
        "type": "ENTITY_ATTR",
        "version": 1,
        "value": 2,
        "target": "sec$Role:description"
      },
      {
        "_entityName": "sec$Permission",
        "id": "46b7fba0-c7a9-f641-7005-06d3ce0064b7",
        "role": {
          "_entityName": "sec$Role",
          "id": "314a01ea-1792-bcf9-1103-6fa80a3bd860"
        },
        "type": "SCREEN",
        "version": 1,
        "value": 0,
        "target": "administration"
      },
      {
        "_entityName": "sec$Permission",
        "id": "5641a2ae-d5ae-a130-b164-1af7eb672e25",
        "role": {
          "_entityName": "sec$Role",
          "id": "314a01ea-1792-bcf9-1103-6fa80a3bd860"
        },
        "type": "SCREEN",
        "version": 1,
        "value": 1,
        "target": "centralinfo_Users.browse"
      },
      {
        "_entityName": "sec$Permission",
        "id": "fc4b9b6a-bea2-41b1-407f-d5eb81ebe9ec",
        "role": {
          "_entityName": "sec$Role",
          "id": "314a01ea-1792-bcf9-1103-6fa80a3bd860"
        },
        "type": "ENTITY_ATTR",
        "version": 1,
        "value": 2,
        "target": "sec$User:language"
      },
      {
        "_entityName": "sec$Permission",
        "id": "df9ae292-dfb8-ea81-40e1-6c58275f6674",
        "role": {
          "_entityName": "sec$Role",
          "id": "314a01ea-1792-bcf9-1103-6fa80a3bd860"
        },
        "type": "ENTITY_ATTR",
        "version": 1,
        "value": 2,
        "target": "sec$Group:name"
      },
      {
        "_entityName": "sec$Permission",
        "id": "d33fd510-1061-2dd2-2f6f-c597d356a196",
        "role": {
          "_entityName": "sec$Role",
          "id": "314a01ea-1792-bcf9-1103-6fa80a3bd860"
        },
        "type": "ENTITY_OP",
        "version": 1,
        "value": 1,
        "target": "centralinfo_UserRole:delete"
      },
      {
        "_entityName": "sec$Permission",
        "id": "169e1a17-411f-ddb8-11ec-50bee9d12f08",
        "role": {
          "_entityName": "sec$Role",
          "id": "314a01ea-1792-bcf9-1103-6fa80a3bd860"
        },
        "type": "ENTITY_ATTR",
        "version": 1,
        "value": 2,
        "target": "sec$User:loginLowerCase"
      },
      {
        "_entityName": "sec$Permission",
        "id": "7e839050-01fc-c305-1435-941a8e19f8ba",
        "role": {
          "_entityName": "sec$Role",
          "id": "314a01ea-1792-bcf9-1103-6fa80a3bd860"
        },
        "type": "SCREEN",
        "version": 1,
        "value": 0,
        "target": "reports"
      },
      {
        "_entityName": "sec$Permission",
        "id": "8cfe6dcb-818e-897a-0f7b-ebb5ae752cdd",
        "role": {
          "_entityName": "sec$Role",
          "id": "314a01ea-1792-bcf9-1103-6fa80a3bd860"
        },
        "type": "ENTITY_OP",
        "version": 1,
        "value": 1,
        "target": "centralinfo_Users:delete"
      },
      {
        "_entityName": "sec$Permission",
        "id": "81a26f8c-dab7-a88f-5b7f-f316a474caa5",
        "role": {
          "_entityName": "sec$Role",
          "id": "314a01ea-1792-bcf9-1103-6fa80a3bd860"
        },
        "type": "ENTITY_ATTR",
        "version": 1,
        "value": 2,
        "target": "centralinfo_Users:createTs"
      },
      {
        "_entityName": "sec$Permission",
        "id": "bd744759-557a-f2b0-7619-7772a522341f",
        "role": {
          "_entityName": "sec$Role",
          "id": "314a01ea-1792-bcf9-1103-6fa80a3bd860"
        },
        "type": "ENTITY_ATTR",
        "version": 1,
        "value": 2,
        "target": "sec$Role:updatedBy"
      },
      {
        "_entityName": "sec$Permission",
        "id": "65d207f7-b775-87a0-acdd-c45b50519e95",
        "role": {
          "_entityName": "sec$Role",
          "id": "314a01ea-1792-bcf9-1103-6fa80a3bd860"
        },
        "type": "ENTITY_ATTR",
        "version": 1,
        "value": 2,
        "target": "sec$User:login"
      },
      {
        "_entityName": "sec$Permission",
        "id": "d8c52f76-dbe8-6d99-398e-dff45216f71d",
        "role": {
          "_entityName": "sec$Role",
          "id": "314a01ea-1792-bcf9-1103-6fa80a3bd860"
        },
        "type": "ENTITY_ATTR",
        "version": 1,
        "value": 2,
        "target": "sec$Group:parent"
      },
      {
        "_entityName": "sec$Permission",
        "id": "ce9f38db-27a2-91ff-3227-1535f87106cc",
        "role": {
          "_entityName": "sec$Role",
          "id": "314a01ea-1792-bcf9-1103-6fa80a3bd860"
        },
        "type": "ENTITY_ATTR",
        "version": 1,
        "value": 2,
        "target": "sec$User:ipMask"
      },
      {
        "_entityName": "sec$Permission",
        "id": "9756800a-967d-6010-ab34-a7cfe90f3372",
        "role": {
          "_entityName": "sec$Role",
          "id": "314a01ea-1792-bcf9-1103-6fa80a3bd860"
        },
        "type": "UI",
        "version": 1,
        "value": 0,
        "target": "centralinfo_Users.browse:approveBtn"
      },
      {
        "_entityName": "sec$Permission",
        "id": "cbb62a1e-55e4-a144-74a0-5a0e5e70286e",
        "role": {
          "_entityName": "sec$Role",
          "id": "314a01ea-1792-bcf9-1103-6fa80a3bd860"
        },
        "type": "ENTITY_ATTR",
        "version": 1,
        "value": 2,
        "target": "centralinfo_Users:id"
      },
      {
        "_entityName": "sec$Permission",
        "id": "8293bf28-0890-a7d0-f6d4-dc324e0c83ab",
        "role": {
          "_entityName": "sec$Role",
          "id": "314a01ea-1792-bcf9-1103-6fa80a3bd860"
        },
        "type": "ENTITY_OP",
        "version": 1,
        "value": 1,
        "target": "sec$Role:read"
      },
      {
        "_entityName": "sec$Permission",
        "id": "e8fd4dc3-afe8-75dc-e9d0-064906cb64e3",
        "role": {
          "_entityName": "sec$Role",
          "id": "314a01ea-1792-bcf9-1103-6fa80a3bd860"
        },
        "type": "ENTITY_ATTR",
        "version": 1,
        "value": 2,
        "target": "sec$Role:defaultRole"
      },
      {
        "_entityName": "sec$Permission",
        "id": "1711efd5-b2fe-3b51-6fcb-954b1f9399c6",
        "role": {
          "_entityName": "sec$Role",
          "id": "314a01ea-1792-bcf9-1103-6fa80a3bd860"
        },
        "type": "ENTITY_ATTR",
        "version": 1,
        "value": 2,
        "target": "centralinfo_UserRole:id"
      },
      {
        "_entityName": "sec$Permission",
        "id": "9f5cb2c1-15c7-ae41-4b2c-9e33f20db8b7",
        "role": {
          "_entityName": "sec$Role",
          "id": "314a01ea-1792-bcf9-1103-6fa80a3bd860"
        },
        "type": "ENTITY_ATTR",
        "version": 1,
        "value": 2,
        "target": "centralinfo_Users:createdBy"
      },
      {
        "_entityName": "sec$Permission",
        "id": "6fb6f00d-48e9-9ef2-1673-405329f03fcf",
        "role": {
          "_entityName": "sec$Role",
          "id": "314a01ea-1792-bcf9-1103-6fa80a3bd860"
        },
        "type": "ENTITY_ATTR",
        "version": 1,
        "value": 2,
        "target": "sec$User:deletedBy"
      },
      {
        "_entityName": "sec$Permission",
        "id": "c7b9b254-8fd0-60bc-4d5f-54f22318caf7",
        "role": {
          "_entityName": "sec$Role",
          "id": "314a01ea-1792-bcf9-1103-6fa80a3bd860"
        },
        "type": "SCREEN",
        "version": 1,
        "value": 0,
        "target": "centralinfo_Customer.browse"
      },
      {
        "_entityName": "sec$Permission",
        "id": "f38d9c34-934e-da6f-b210-6a41064c1840",
        "role": {
          "_entityName": "sec$Role",
          "id": "314a01ea-1792-bcf9-1103-6fa80a3bd860"
        },
        "type": "ENTITY_ATTR",
        "version": 1,
        "value": 2,
        "target": "sec$User:timeZoneAuto"
      },
      {
        "_entityName": "sec$Permission",
        "id": "199f93ed-c5b9-d33a-ae6d-5701480ae551",
        "role": {
          "_entityName": "sec$Role",
          "id": "314a01ea-1792-bcf9-1103-6fa80a3bd860"
        },
        "type": "ENTITY_OP",
        "version": 1,
        "value": 1,
        "target": "sec$Group:read"
      },
      {
        "_entityName": "sec$Permission",
        "id": "98fd1a6b-1e71-1047-2f95-c96ee7037b9e",
        "role": {
          "_entityName": "sec$Role",
          "id": "314a01ea-1792-bcf9-1103-6fa80a3bd860"
        },
        "type": "ENTITY_OP",
        "version": 1,
        "value": 1,
        "target": "centralinfo_UserRole:update"
      },
      {
        "_entityName": "sec$Permission",
        "id": "c821c015-ccc9-f645-6f59-c8fe5934f3ec",
        "role": {
          "_entityName": "sec$Role",
          "id": "314a01ea-1792-bcf9-1103-6fa80a3bd860"
        },
        "type": "ENTITY_ATTR",
        "version": 1,
        "value": 2,
        "target": "sec$Group:deletedBy"
      },
      {
        "_entityName": "sec$Permission",
        "id": "d683edfe-5c59-2498-f4eb-c5b28ec533e9",
        "role": {
          "_entityName": "sec$Role",
          "id": "314a01ea-1792-bcf9-1103-6fa80a3bd860"
        },
        "type": "SCREEN",
        "version": 1,
        "value": 0,
        "target": "centralinfo_DigitalEvaluation.browse"
      },
      {
        "_entityName": "sec$Permission",
        "id": "e27efa88-d2e7-cab5-b928-287a5a9c2ba4",
        "role": {
          "_entityName": "sec$Role",
          "id": "314a01ea-1792-bcf9-1103-6fa80a3bd860"
        },
        "type": "ENTITY_ATTR",
        "version": 1,
        "value": 2,
        "target": "centralinfo_Users:deleteTs"
      },
      {
        "_entityName": "sec$Permission",
        "id": "4111b6dc-fa9b-af40-13ce-c291221bd79d",
        "role": {
          "_entityName": "sec$Role",
          "id": "314a01ea-1792-bcf9-1103-6fa80a3bd860"
        },
        "type": "ENTITY_ATTR",
        "version": 1,
        "value": 2,
        "target": "sec$User:createdBy"
      },
      {
        "_entityName": "sec$Permission",
        "id": "bc3bedae-0943-042a-d81c-33f79a879a45",
        "role": {
          "_entityName": "sec$Role",
          "id": "314a01ea-1792-bcf9-1103-6fa80a3bd860"
        },
        "type": "ENTITY_OP",
        "version": 1,
        "value": 1,
        "target": "sec$Group:delete"
      },
      {
        "_entityName": "sec$Permission",
        "id": "aa685c8d-0a1c-67fb-a3c7-f7ea3e6dad98",
        "role": {
          "_entityName": "sec$Role",
          "id": "314a01ea-1792-bcf9-1103-6fa80a3bd860"
        },
        "type": "ENTITY_ATTR",
        "version": 1,
        "value": 2,
        "target": "sec$User:position"
      },
      {
        "_entityName": "sec$Permission",
        "id": "a2e4e449-5814-36d2-a15f-9559bcbdb70c",
        "role": {
          "_entityName": "sec$Role",
          "id": "314a01ea-1792-bcf9-1103-6fa80a3bd860"
        },
        "type": "SCREEN",
        "version": 1,
        "value": 0,
        "target": "centralinfo_Sponsor.browse"
      },
      {
        "_entityName": "sec$Permission",
        "id": "031211dd-e1e0-411c-930b-11622b202ba4",
        "role": {
          "_entityName": "sec$Role",
          "id": "314a01ea-1792-bcf9-1103-6fa80a3bd860"
        },
        "type": "ENTITY_ATTR",
        "version": 1,
        "value": 2,
        "target": "sec$Role:name"
      },
      {
        "_entityName": "sec$Permission",
        "id": "0aecf3d0-7099-266a-6d4d-b3a83498506c",
        "role": {
          "_entityName": "sec$Role",
          "id": "314a01ea-1792-bcf9-1103-6fa80a3bd860"
        },
        "type": "ENTITY_ATTR",
        "version": 1,
        "value": 2,
        "target": "sec$Group:deleteTs"
      },
      {
        "_entityName": "sec$Permission",
        "id": "b63718ec-27f5-2565-4fc3-a9fb673992aa",
        "role": {
          "_entityName": "sec$Role",
          "id": "314a01ea-1792-bcf9-1103-6fa80a3bd860"
        },
        "type": "ENTITY_ATTR",
        "version": 1,
        "value": 2,
        "target": "centralinfo_UserRole:updatedBy"
      },
      {
        "_entityName": "sec$Permission",
        "id": "f091c364-9fd2-db8f-653e-70944360f486",
        "role": {
          "_entityName": "sec$Role",
          "id": "314a01ea-1792-bcf9-1103-6fa80a3bd860"
        },
        "type": "ENTITY_ATTR",
        "version": 1,
        "value": 2,
        "target": "centralinfo_Users:version"
      },
      {
        "_entityName": "sec$Permission",
        "id": "5b86a0c4-9231-6c18-7e44-5f307360dc97",
        "role": {
          "_entityName": "sec$Role",
          "id": "314a01ea-1792-bcf9-1103-6fa80a3bd860"
        },
        "type": "ENTITY_OP",
        "version": 1,
        "value": 1,
        "target": "sec$Role:update"
      },
      {
        "_entityName": "sec$Permission",
        "id": "1cd7507e-d66b-c66a-187d-0c812692f329",
        "role": {
          "_entityName": "sec$Role",
          "id": "314a01ea-1792-bcf9-1103-6fa80a3bd860"
        },
        "type": "ENTITY_ATTR",
        "version": 1,
        "value": 2,
        "target": "sec$User:userRoles"
      },
      {
        "_entityName": "sec$Permission",
        "id": "251a955e-3948-6d88-bea8-82b44158b92f",
        "role": {
          "_entityName": "sec$Role",
          "id": "314a01ea-1792-bcf9-1103-6fa80a3bd860"
        },
        "type": "ENTITY_ATTR",
        "version": 1,
        "value": 2,
        "target": "centralinfo_UserRole:createdBy"
      },
      {
        "_entityName": "sec$Permission",
        "id": "22e69a36-83f7-8bd9-668d-dd9a94c385c5",
        "role": {
          "_entityName": "sec$Role",
          "id": "314a01ea-1792-bcf9-1103-6fa80a3bd860"
        },
        "type": "ENTITY_ATTR",
        "version": 1,
        "value": 2,
        "target": "centralinfo_Users:deletedBy"
      },
      {
        "_entityName": "sec$Permission",
        "id": "9f393a9c-a400-956f-2bff-25605eb6d913",
        "role": {
          "_entityName": "sec$Role",
          "id": "314a01ea-1792-bcf9-1103-6fa80a3bd860"
        },
        "type": "ENTITY_ATTR",
        "version": 1,
        "value": 2,
        "target": "sec$Group:id"
      },
      {
        "_entityName": "sec$Permission",
        "id": "6c9faf3c-583b-25dd-6bf6-226c983f1514",
        "role": {
          "_entityName": "sec$Role",
          "id": "314a01ea-1792-bcf9-1103-6fa80a3bd860"
        },
        "type": "SCREEN",
        "version": 1,
        "value": 0,
        "target": "centralinfo_GeographicalArea.browse"
      },
      {
        "_entityName": "sec$Permission",
        "id": "b6395f68-65cf-f00d-2c5f-3c5cba77461c",
        "role": {
          "_entityName": "sec$Role",
          "id": "314a01ea-1792-bcf9-1103-6fa80a3bd860"
        },
        "type": "SCREEN",
        "version": 1,
        "value": 0,
        "target": "help"
      },
      {
        "_entityName": "sec$Permission",
        "id": "b8bd051a-a924-e338-c5f6-76da1fedef81",
        "role": {
          "_entityName": "sec$Role",
          "id": "314a01ea-1792-bcf9-1103-6fa80a3bd860"
        },
        "type": "ENTITY_ATTR",
        "version": 1,
        "value": 2,
        "target": "centralinfo_UserRole:users"
      },
      {
        "_entityName": "sec$Permission",
        "id": "38872f9e-a336-6d9f-34ad-443e071b2dc4",
        "role": {
          "_entityName": "sec$Role",
          "id": "314a01ea-1792-bcf9-1103-6fa80a3bd860"
        },
        "type": "ENTITY_ATTR",
        "version": 1,
        "value": 2,
        "target": "sec$User:email"
      },
      {
        "_entityName": "sec$Permission",
        "id": "204f91e4-2ed2-1781-954b-f68d2e2d8bee",
        "role": {
          "_entityName": "sec$Role",
          "id": "314a01ea-1792-bcf9-1103-6fa80a3bd860"
        },
        "type": "ENTITY_ATTR",
        "version": 1,
        "value": 2,
        "target": "sec$Group:updatedBy"
      },
      {
        "_entityName": "sec$Permission",
        "id": "2db45985-855e-3578-c932-ba0947d6a104",
        "role": {
          "_entityName": "sec$Role",
          "id": "314a01ea-1792-bcf9-1103-6fa80a3bd860"
        },
        "type": "ENTITY_ATTR",
        "version": 1,
        "value": 2,
        "target": "sec$Role:createTs"
      }
    ],
    "name": "SMS_Maker"
  },
  {
    "_entityName": "sec$Role",
    "id": "54e9071b-dc8a-a55c-947f-ba6c23d1deb8",
    "securityScope": "GENERIC_UI",
    "locName": "SMS-Checker",
    "type": "STANDARD",
    "version": 1,
    "locSecurityScope": "Generic UI",
    "permissions": [
      {
        "_entityName": "sec$Permission",
        "id": "40cac831-84d9-f8de-8dbc-ee3efb22e75c",
        "role": {
          "_entityName": "sec$Role",
          "id": "54e9071b-dc8a-a55c-947f-ba6c23d1deb8"
        },
        "type": "ENTITY_ATTR",
        "version": 1,
        "value": 2,
        "target": "centralinfo_Users:name"
      },
      {
        "_entityName": "sec$Permission",
        "id": "ac3b42d2-b599-0556-424d-3185749e3473",
        "role": {
          "_entityName": "sec$Role",
          "id": "54e9071b-dc8a-a55c-947f-ba6c23d1deb8"
        },
        "type": "ENTITY_OP",
        "version": 1,
        "value": 1,
        "target": "centralinfo_UserRole:create"
      },
      {
        "_entityName": "sec$Permission",
        "id": "62395ce6-7a88-ea45-6c07-ed5952e02aaf",
        "role": {
          "_entityName": "sec$Role",
          "id": "54e9071b-dc8a-a55c-947f-ba6c23d1deb8"
        },
        "type": "ENTITY_ATTR",
        "version": 1,
        "value": 2,
        "target": "sec$User:deleteTs"
      },
      {
        "_entityName": "sec$Permission",
        "id": "fc2038dd-dd34-6648-73d0-887f3a37a11e",
        "role": {
          "_entityName": "sec$Role",
          "id": "54e9071b-dc8a-a55c-947f-ba6c23d1deb8"
        },
        "type": "ENTITY_ATTR",
        "version": 1,
        "value": 2,
        "target": "sec$User:userRoles"
      },
      {
        "_entityName": "sec$Permission",
        "id": "a121cb8a-8712-6a75-9e3e-ccde36ec76c7",
        "role": {
          "_entityName": "sec$Role",
          "id": "54e9071b-dc8a-a55c-947f-ba6c23d1deb8"
        },
        "type": "ENTITY_OP",
        "version": 1,
        "value": 1,
        "target": "sec$User:delete"
      },
      {
        "_entityName": "sec$Permission",
        "id": "948665e8-1d61-2c27-829d-84021f52e9ed",
        "role": {
          "_entityName": "sec$Role",
          "id": "54e9071b-dc8a-a55c-947f-ba6c23d1deb8"
        },
        "type": "ENTITY_ATTR",
        "version": 1,
        "value": 2,
        "target": "sec$User:email"
      },
      {
        "_entityName": "sec$Permission",
        "id": "a2af1146-78bf-03cb-75c9-4fa41085227c",
        "role": {
          "_entityName": "sec$Role",
          "id": "54e9071b-dc8a-a55c-947f-ba6c23d1deb8"
        },
        "type": "ENTITY_ATTR",
        "version": 1,
        "value": 2,
        "target": "sec$Role:description"
      },
      {
        "_entityName": "sec$Permission",
        "id": "dc8853c2-01e7-4e49-db58-8684d0e014c8",
        "role": {
          "_entityName": "sec$Role",
          "id": "54e9071b-dc8a-a55c-947f-ba6c23d1deb8"
        },
        "type": "SCREEN",
        "version": 1,
        "value": 1,
        "target": "*"
      },
      {
        "_entityName": "sec$Permission",
        "id": "83c3aaa8-6b12-5c97-fd36-4f138dd1c10e",
        "role": {
          "_entityName": "sec$Role",
          "id": "54e9071b-dc8a-a55c-947f-ba6c23d1deb8"
        },
        "type": "ENTITY_ATTR",
        "version": 1,
        "value": 2,
        "target": "centralinfo_UserRole:createdBy"
      },
      {
        "_entityName": "sec$Permission",
        "id": "017c4b0e-e039-5499-7fd8-dd39765d2079",
        "role": {
          "_entityName": "sec$Role",
          "id": "54e9071b-dc8a-a55c-947f-ba6c23d1deb8"
        },
        "type": "ENTITY_ATTR",
        "version": 1,
        "value": 2,
        "target": "sec$User:passwordEncryption"
      },
      {
        "_entityName": "sec$Permission",
        "id": "a02f9c18-e4f8-3421-87b4-63ef2e58d5f4",
        "role": {
          "_entityName": "sec$Role",
          "id": "54e9071b-dc8a-a55c-947f-ba6c23d1deb8"
        },
        "type": "ENTITY_ATTR",
        "version": 1,
        "value": 2,
        "target": "centralinfo_UserRole:usersId"
      },
      {
        "_entityName": "sec$Permission",
        "id": "52bf1a1b-d7ee-fb96-adde-59d96b265ae6",
        "role": {
          "_entityName": "sec$Role",
          "id": "54e9071b-dc8a-a55c-947f-ba6c23d1deb8"
        },
        "type": "ENTITY_ATTR",
        "version": 1,
        "value": 2,
        "target": "centralinfo_Users:createdBy"
      },
      {
        "_entityName": "sec$Permission",
        "id": "4e597768-26bd-b8a7-43bd-8c3cc90fc385",
        "role": {
          "_entityName": "sec$Role",
          "id": "54e9071b-dc8a-a55c-947f-ba6c23d1deb8"
        },
        "type": "ENTITY_ATTR",
        "version": 1,
        "value": 2,
        "target": "sec$Group:updateTs"
      },
      {
        "_entityName": "sec$Permission",
        "id": "1f3c571c-e71b-2a5b-0ab7-4a49c3eb3956",
        "role": {
          "_entityName": "sec$Role",
          "id": "54e9071b-dc8a-a55c-947f-ba6c23d1deb8"
        },
        "type": "ENTITY_ATTR",
        "version": 1,
        "value": 2,
        "target": "sec$Group:createdBy"
      },
      {
        "_entityName": "sec$Permission",
        "id": "aac65752-bc0b-289d-f62f-577f0c79ea0c",
        "role": {
          "_entityName": "sec$Role",
          "id": "54e9071b-dc8a-a55c-947f-ba6c23d1deb8"
        },
        "type": "ENTITY_ATTR",
        "version": 1,
        "value": 2,
        "target": "centralinfo_Users:roles"
      },
      {
        "_entityName": "sec$Permission",
        "id": "7192c921-350c-2efd-ae79-0595371a879c",
        "role": {
          "_entityName": "sec$Role",
          "id": "54e9071b-dc8a-a55c-947f-ba6c23d1deb8"
        },
        "type": "ENTITY_OP",
        "version": 1,
        "value": 1,
        "target": "centralinfo_Users:create"
      },
      {
        "_entityName": "sec$Permission",
        "id": "a144d584-5705-83b6-8771-f40519e354ca",
        "role": {
          "_entityName": "sec$Role",
          "id": "54e9071b-dc8a-a55c-947f-ba6c23d1deb8"
        },
        "type": "ENTITY_ATTR",
        "version": 1,
        "value": 2,
        "target": "sec$Group:hierarchyList"
      },
      {
        "_entityName": "sec$Permission",
        "id": "a6beb790-c30e-2008-2053-242afd675d06",
        "role": {
          "_entityName": "sec$Role",
          "id": "54e9071b-dc8a-a55c-947f-ba6c23d1deb8"
        },
        "type": "ENTITY_ATTR",
        "version": 1,
        "value": 2,
        "target": "centralinfo_UserRole:id"
      },
      {
        "_entityName": "sec$Permission",
        "id": "b88d2220-0f6c-e751-e127-e96395f75215",
        "role": {
          "_entityName": "sec$Role",
          "id": "54e9071b-dc8a-a55c-947f-ba6c23d1deb8"
        },
        "type": "ENTITY_ATTR",
        "version": 1,
        "value": 2,
        "target": "sec$Role:locName"
      },
      {
        "_entityName": "sec$Permission",
        "id": "0cc526f2-9aa7-6d13-4479-f82362fa4d1a",
        "role": {
          "_entityName": "sec$Role",
          "id": "54e9071b-dc8a-a55c-947f-ba6c23d1deb8"
        },
        "type": "ENTITY_ATTR",
        "version": 1,
        "value": 2,
        "target": "centralinfo_UserRole:createTs"
      },
      {
        "_entityName": "sec$Permission",
        "id": "5e68775e-221f-0743-acc1-62bfe2a56d8b",
        "role": {
          "_entityName": "sec$Role",
          "id": "54e9071b-dc8a-a55c-947f-ba6c23d1deb8"
        },
        "type": "ENTITY_ATTR",
        "version": 1,
        "value": 2,
        "target": "sec$User:createTs"
      },
      {
        "_entityName": "sec$Permission",
        "id": "ff3e0561-f65a-1ad2-451b-b8cee61f3e27",
        "role": {
          "_entityName": "sec$Role",
          "id": "54e9071b-dc8a-a55c-947f-ba6c23d1deb8"
        },
        "type": "ENTITY_OP",
        "version": 1,
        "value": 1,
        "target": "sec$User:read"
      },
      {
        "_entityName": "sec$Permission",
        "id": "c3d1c6e9-8c17-de1c-5f2f-9a8dc0bd3210",
        "role": {
          "_entityName": "sec$Role",
          "id": "54e9071b-dc8a-a55c-947f-ba6c23d1deb8"
        },
        "type": "SCREEN",
        "version": 1,
        "value": 0,
        "target": "centralinfo_Issuer.browse"
      },
      {
        "_entityName": "sec$Permission",
        "id": "6f919153-55ec-4300-7571-4e96c01cdaeb",
        "role": {
          "_entityName": "sec$Role",
          "id": "54e9071b-dc8a-a55c-947f-ba6c23d1deb8"
        },
        "type": "SCREEN",
        "version": 1,
        "value": 0,
        "target": "help"
      },
      {
        "_entityName": "sec$Permission",
        "id": "8abe4e14-5ad4-a761-d73e-c5ff8ef32d6c",
        "role": {
          "_entityName": "sec$Role",
          "id": "54e9071b-dc8a-a55c-947f-ba6c23d1deb8"
        },
        "type": "ENTITY_ATTR",
        "version": 1,
        "value": 2,
        "target": "sec$Group:deletedBy"
      },
      {
        "_entityName": "sec$Permission",
        "id": "914ee6c2-1d8f-58b5-87dc-8fd9084694b7",
        "role": {
          "_entityName": "sec$Role",
          "id": "54e9071b-dc8a-a55c-947f-ba6c23d1deb8"
        },
        "type": "ENTITY_ATTR",
        "version": 1,
        "value": 2,
        "target": "sec$User:groupNames"
      },
      {
        "_entityName": "sec$Permission",
        "id": "3000c082-14e1-5ba6-81a1-b00870bee191",
        "role": {
          "_entityName": "sec$Role",
          "id": "54e9071b-dc8a-a55c-947f-ba6c23d1deb8"
        },
        "type": "ENTITY_ATTR",
        "version": 1,
        "value": 2,
        "target": "sec$Role:locSecurityScope"
      },
      {
        "_entityName": "sec$Permission",
        "id": "473eac67-acf9-0a8c-6f6c-0eac8bbc7815",
        "role": {
          "_entityName": "sec$Role",
          "id": "54e9071b-dc8a-a55c-947f-ba6c23d1deb8"
        },
        "type": "ENTITY_OP",
        "version": 1,
        "value": 1,
        "target": "sec$Group:delete"
      },
      {
        "_entityName": "sec$Permission",
        "id": "726c9dd8-0a43-646a-125e-75274ee35e41",
        "role": {
          "_entityName": "sec$Role",
          "id": "54e9071b-dc8a-a55c-947f-ba6c23d1deb8"
        },
        "type": "ENTITY_ATTR",
        "version": 1,
        "value": 2,
        "target": "sec$User:group"
      },
      {
        "_entityName": "sec$Permission",
        "id": "e54aa4df-2365-960a-d78e-c2e00a41bd92",
        "role": {
          "_entityName": "sec$Role",
          "id": "54e9071b-dc8a-a55c-947f-ba6c23d1deb8"
        },
        "type": "SCREEN",
        "version": 1,
        "value": 0,
        "target": "centralinfo_Sponsor.browse"
      },
      {
        "_entityName": "sec$Permission",
        "id": "d69135da-6f43-4a8c-b41c-f96eda377b88",
        "role": {
          "_entityName": "sec$Role",
          "id": "54e9071b-dc8a-a55c-947f-ba6c23d1deb8"
        },
        "type": "SPECIFIC",
        "version": 1,
        "value": 1,
        "target": "*"
      },
      {
        "_entityName": "sec$Permission",
        "id": "9ea27718-7f8a-3836-6898-0426e89b7c69",
        "role": {
          "_entityName": "sec$Role",
          "id": "54e9071b-dc8a-a55c-947f-ba6c23d1deb8"
        },
        "type": "ENTITY_ATTR",
        "version": 1,
        "value": 2,
        "target": "centralinfo_UserRole:version"
      },
      {
        "_entityName": "sec$Permission",
        "id": "4692a6e9-a32b-a069-636e-3b53b9379378",
        "role": {
          "_entityName": "sec$Role",
          "id": "54e9071b-dc8a-a55c-947f-ba6c23d1deb8"
        },
        "type": "ENTITY_ATTR",
        "version": 1,
        "value": 2,
        "target": "sec$Role:updatedBy"
      },
      {
        "_entityName": "sec$Permission",
        "id": "fd6d36a1-e108-ad94-5778-0c22fe00f441",
        "role": {
          "_entityName": "sec$Role",
          "id": "54e9071b-dc8a-a55c-947f-ba6c23d1deb8"
        },
        "type": "ENTITY_ATTR",
        "version": 1,
        "value": 2,
        "target": "centralinfo_UserRole:deletedBy"
      },
      {
        "_entityName": "sec$Permission",
        "id": "51410d76-79a5-fb96-9bf3-17fac18cf5cc",
        "role": {
          "_entityName": "sec$Role",
          "id": "54e9071b-dc8a-a55c-947f-ba6c23d1deb8"
        },
        "type": "ENTITY_OP",
        "version": 1,
        "value": 1,
        "target": "sec$User:create"
      },
      {
        "_entityName": "sec$Permission",
        "id": "5affc6df-e0fe-cbf8-3210-8f98e89e8f60",
        "role": {
          "_entityName": "sec$Role",
          "id": "54e9071b-dc8a-a55c-947f-ba6c23d1deb8"
        },
        "type": "ENTITY_ATTR",
        "version": 1,
        "value": 2,
        "target": "sec$Role:version"
      },
      {
        "_entityName": "sec$Permission",
        "id": "fe9214db-6a7e-5cd0-7ddc-87fdd70ac39e",
        "role": {
          "_entityName": "sec$Role",
          "id": "54e9071b-dc8a-a55c-947f-ba6c23d1deb8"
        },
        "type": "SCREEN",
        "version": 1,
        "value": 0,
        "target": "administration"
      },
      {
        "_entityName": "sec$Permission",
        "id": "4792f9c1-d610-3c25-48e5-5a403ac2b053",
        "role": {
          "_entityName": "sec$Role",
          "id": "54e9071b-dc8a-a55c-947f-ba6c23d1deb8"
        },
        "type": "ENTITY_ATTR",
        "version": 1,
        "value": 2,
        "target": "sec$User:language"
      },
      {
        "_entityName": "sec$Permission",
        "id": "eca3246f-21ab-886d-b298-46ad1d3e3154",
        "role": {
          "_entityName": "sec$Role",
          "id": "54e9071b-dc8a-a55c-947f-ba6c23d1deb8"
        },
        "type": "SCREEN",
        "version": 1,
        "value": 0,
        "target": "centralinfo_CompanyName.browse"
      },
      {
        "_entityName": "sec$Permission",
        "id": "3520d9d1-1a67-d84b-e0ef-4daeb7b2197b",
        "role": {
          "_entityName": "sec$Role",
          "id": "54e9071b-dc8a-a55c-947f-ba6c23d1deb8"
        },
        "type": "ENTITY_ATTR",
        "version": 1,
        "value": 2,
        "target": "sec$Role:sysTenantId"
      },
      {
        "_entityName": "sec$Permission",
        "id": "ce09b5cb-6cee-07d3-6af7-23921139b6f4",
        "role": {
          "_entityName": "sec$Role",
          "id": "54e9071b-dc8a-a55c-947f-ba6c23d1deb8"
        },
        "type": "ENTITY_ATTR",
        "version": 1,
        "value": 2,
        "target": "sec$User:changePasswordAtNextLogon"
      },
      {
        "_entityName": "sec$Permission",
        "id": "65f20530-ecaa-b760-5eae-10353e995153",
        "role": {
          "_entityName": "sec$Role",
          "id": "54e9071b-dc8a-a55c-947f-ba6c23d1deb8"
        },
        "type": "ENTITY_ATTR",
        "version": 1,
        "value": 2,
        "target": "sec$User:id"
      },
      {
        "_entityName": "sec$Permission",
        "id": "12b8af04-9ed1-13a1-6f25-70f1e1ae76ec",
        "role": {
          "_entityName": "sec$Role",
          "id": "54e9071b-dc8a-a55c-947f-ba6c23d1deb8"
        },
        "type": "ENTITY_ATTR",
        "version": 1,
        "value": 2,
        "target": "sec$User:password"
      },
      {
        "_entityName": "sec$Permission",
        "id": "c7bbac5d-ecd6-9a82-dcd8-f45173a36fc2",
        "role": {
          "_entityName": "sec$Role",
          "id": "54e9071b-dc8a-a55c-947f-ba6c23d1deb8"
        },
        "type": "ENTITY_ATTR",
        "version": 1,
        "value": 2,
        "target": "sec$User:loginLowerCase"
      },
      {
        "_entityName": "sec$Permission",
        "id": "63d8fe59-e2f0-768c-dcb6-7634aac544e5",
        "role": {
          "_entityName": "sec$Role",
          "id": "54e9071b-dc8a-a55c-947f-ba6c23d1deb8"
        },
        "type": "ENTITY_ATTR",
        "version": 1,
        "value": 2,
        "target": "centralinfo_Users:allRolesInString"
      },
      {
        "_entityName": "sec$Permission",
        "id": "b0523001-167a-6d26-9cf5-ae4e32721ea4",
        "role": {
          "_entityName": "sec$Role",
          "id": "54e9071b-dc8a-a55c-947f-ba6c23d1deb8"
        },
        "type": "ENTITY_ATTR",
        "version": 1,
        "value": 2,
        "target": "sec$Role:permissions"
      },
      {
        "_entityName": "sec$Permission",
        "id": "d0c2bc06-ffc7-81e1-682a-710c492f1588",
        "role": {
          "_entityName": "sec$Role",
          "id": "54e9071b-dc8a-a55c-947f-ba6c23d1deb8"
        },
        "type": "ENTITY_ATTR",
        "version": 1,
        "value": 2,
        "target": "sec$Role:name"
      },
      {
        "_entityName": "sec$Permission",
        "id": "629870a1-da77-fde9-c273-7815f04276e7",
        "role": {
          "_entityName": "sec$Role",
          "id": "54e9071b-dc8a-a55c-947f-ba6c23d1deb8"
        },
        "type": "ENTITY_ATTR",
        "version": 1,
        "value": 2,
        "target": "sec$User:name"
      },
      {
        "_entityName": "sec$Permission",
        "id": "f09ac1b2-1944-c0e8-66bf-c127d22e4056",
        "role": {
          "_entityName": "sec$Role",
          "id": "54e9071b-dc8a-a55c-947f-ba6c23d1deb8"
        },
        "type": "ENTITY_OP",
        "version": 1,
        "value": 1,
        "target": "sec$Group:create"
      },
      {
        "_entityName": "sec$Permission",
        "id": "ce88b623-bf2c-93e9-b653-e1bb613da0d3",
        "role": {
          "_entityName": "sec$Role",
          "id": "54e9071b-dc8a-a55c-947f-ba6c23d1deb8"
        },
        "type": "ENTITY_ATTR",
        "version": 1,
        "value": 2,
        "target": "sec$User:ipMask"
      },
      {
        "_entityName": "sec$Permission",
        "id": "1fa4ccd6-757a-0612-02e5-18079eb32220",
        "role": {
          "_entityName": "sec$Role",
          "id": "54e9071b-dc8a-a55c-947f-ba6c23d1deb8"
        },
        "type": "ENTITY_ATTR",
        "version": 1,
        "value": 2,
        "target": "sec$User:active"
      },
      {
        "_entityName": "sec$Permission",
        "id": "1fb4f718-b896-a8c3-43d8-f77732c7ccfc",
        "role": {
          "_entityName": "sec$Role",
          "id": "54e9071b-dc8a-a55c-947f-ba6c23d1deb8"
        },
        "type": "ENTITY_ATTR",
        "version": 1,
        "value": 2,
        "target": "centralinfo_Users:deleteTs"
      },
      {
        "_entityName": "sec$Permission",
        "id": "786c574a-af37-ac0e-3a1d-082d0bd5008a",
        "role": {
          "_entityName": "sec$Role",
          "id": "54e9071b-dc8a-a55c-947f-ba6c23d1deb8"
        },
        "type": "ENTITY_ATTR",
        "version": 1,
        "value": 2,
        "target": "centralinfo_UserRole:roleId"
      },
      {
        "_entityName": "sec$Permission",
        "id": "03d23f95-0f8f-8552-e382-bcb21b7567ae",
        "role": {
          "_entityName": "sec$Role",
          "id": "54e9071b-dc8a-a55c-947f-ba6c23d1deb8"
        },
        "type": "ENTITY_ATTR",
        "version": 1,
        "value": 2,
        "target": "centralinfo_UserRole:updatedBy"
      },
      {
        "_entityName": "sec$Permission",
        "id": "8c83f2bc-0cf0-3885-9ee4-d0d10996e898",
        "role": {
          "_entityName": "sec$Role",
          "id": "54e9071b-dc8a-a55c-947f-ba6c23d1deb8"
        },
        "type": "SCREEN",
        "version": 1,
        "value": 0,
        "target": "centralinfo_GeographicalArea.browse"
      },
      {
        "_entityName": "sec$Permission",
        "id": "dffeea4d-d159-9bee-4cf9-95a5ad7f7455",
        "role": {
          "_entityName": "sec$Role",
          "id": "54e9071b-dc8a-a55c-947f-ba6c23d1deb8"
        },
        "type": "ENTITY_ATTR",
        "version": 1,
        "value": 2,
        "target": "sec$Group:sessionAttributes"
      },
      {
        "_entityName": "sec$Permission",
        "id": "d69f4ea1-a6c8-583c-3f73-10146b9eaf41",
        "role": {
          "_entityName": "sec$Role",
          "id": "54e9071b-dc8a-a55c-947f-ba6c23d1deb8"
        },
        "type": "ENTITY_OP",
        "version": 1,
        "value": 1,
        "target": "sec$User:update"
      },
      {
        "_entityName": "sec$Permission",
        "id": "d6deea59-b0c5-5036-019a-554ef89f8a4d",
        "role": {
          "_entityName": "sec$Role",
          "id": "54e9071b-dc8a-a55c-947f-ba6c23d1deb8"
        },
        "type": "ENTITY_ATTR",
        "version": 1,
        "value": 2,
        "target": "sec$User:timeZoneAuto"
      },
      {
        "_entityName": "sec$Permission",
        "id": "66d30120-d87b-5cb9-0f0b-e2cedf8e910e",
        "role": {
          "_entityName": "sec$Role",
          "id": "54e9071b-dc8a-a55c-947f-ba6c23d1deb8"
        },
        "type": "ENTITY_ATTR",
        "version": 1,
        "value": 2,
        "target": "sec$Role:id"
      },
      {
        "_entityName": "sec$Permission",
        "id": "5e8ac34e-6197-d34a-a67d-de12f4d458d4",
        "role": {
          "_entityName": "sec$Role",
          "id": "54e9071b-dc8a-a55c-947f-ba6c23d1deb8"
        },
        "type": "ENTITY_ATTR",
        "version": 1,
        "value": 2,
        "target": "centralinfo_UserRole:roleName"
      },
      {
        "_entityName": "sec$Permission",
        "id": "f603dc1b-c9d4-0275-2d7a-e614f74461eb",
        "role": {
          "_entityName": "sec$Role",
          "id": "54e9071b-dc8a-a55c-947f-ba6c23d1deb8"
        },
        "type": "ENTITY_ATTR",
        "version": 1,
        "value": 2,
        "target": "sec$Group:version"
      },
      {
        "_entityName": "sec$Permission",
        "id": "ba6e644f-866f-4b9c-54c5-478afb3cd1dc",
        "role": {
          "_entityName": "sec$Role",
          "id": "54e9071b-dc8a-a55c-947f-ba6c23d1deb8"
        },
        "type": "ENTITY_OP",
        "version": 1,
        "value": 1,
        "target": "sec$Role:read"
      },
      {
        "_entityName": "sec$Permission",
        "id": "22faec4f-9b73-e023-31a6-23b791ccc7b9",
        "role": {
          "_entityName": "sec$Role",
          "id": "54e9071b-dc8a-a55c-947f-ba6c23d1deb8"
        },
        "type": "ENTITY_ATTR",
        "version": 1,
        "value": 2,
        "target": "centralinfo_Users:createTs"
      },
      {
        "_entityName": "sec$Permission",
        "id": "ad6f0834-b88f-81fe-4305-969e24b3a981",
        "role": {
          "_entityName": "sec$Role",
          "id": "54e9071b-dc8a-a55c-947f-ba6c23d1deb8"
        },
        "type": "SCREEN",
        "version": 1,
        "value": 0,
        "target": "centralinfo_BondSuppliers.browse"
      },
      {
        "_entityName": "sec$Permission",
        "id": "f1bfbda4-ac3f-03a1-bde6-883382aaa47e",
        "role": {
          "_entityName": "sec$Role",
          "id": "54e9071b-dc8a-a55c-947f-ba6c23d1deb8"
        },
        "type": "ENTITY_ATTR",
        "version": 1,
        "value": 2,
        "target": "centralinfo_Users:lastLoginDate"
      },
      {
        "_entityName": "sec$Permission",
        "id": "e89e44cc-9bec-b6f4-20be-a75266e5f1c7",
        "role": {
          "_entityName": "sec$Role",
          "id": "54e9071b-dc8a-a55c-947f-ba6c23d1deb8"
        },
        "type": "SCREEN",
        "version": 1,
        "value": 1,
        "target": "application-centralinfo"
      },
      {
        "_entityName": "sec$Permission",
        "id": "0258af64-8af5-c393-7071-a7482b3610d0",
        "role": {
          "_entityName": "sec$Role",
          "id": "54e9071b-dc8a-a55c-947f-ba6c23d1deb8"
        },
        "type": "ENTITY_ATTR",
        "version": 1,
        "value": 2,
        "target": "centralinfo_Users:deletedBy"
      },
      {
        "_entityName": "sec$Permission",
        "id": "f05e5b14-16cb-6741-e668-64e3bfc9b707",
        "role": {
          "_entityName": "sec$Role",
          "id": "54e9071b-dc8a-a55c-947f-ba6c23d1deb8"
        },
        "type": "ENTITY_ATTR",
        "version": 1,
        "value": 2,
        "target": "centralinfo_UserRole:role"
      },
      {
        "_entityName": "sec$Permission",
        "id": "7f4517cd-056d-9632-f7c4-dc88f1d451c8",
        "role": {
          "_entityName": "sec$Role",
          "id": "54e9071b-dc8a-a55c-947f-ba6c23d1deb8"
        },
        "type": "ENTITY_ATTR",
        "version": 1,
        "value": 2,
        "target": "sec$User:middleName"
      },
      {
        "_entityName": "sec$Permission",
        "id": "ab8dfb56-4582-e273-cddf-c5616791da8f",
        "role": {
          "_entityName": "sec$Role",
          "id": "54e9071b-dc8a-a55c-947f-ba6c23d1deb8"
        },
        "type": "ENTITY_ATTR",
        "version": 1,
        "value": 2,
        "target": "sec$Role:deletedBy"
      },
      {
        "_entityName": "sec$Permission",
        "id": "a9863130-0bef-8829-3819-50559ac32474",
        "role": {
          "_entityName": "sec$Role",
          "id": "54e9071b-dc8a-a55c-947f-ba6c23d1deb8"
        },
        "type": "ENTITY_ATTR",
        "version": 1,
        "value": 2,
        "target": "sec$Group:name"
      },
      {
        "_entityName": "sec$Permission",
        "id": "80515878-f42b-1ba5-3001-e7e0bffc6a34",
        "role": {
          "_entityName": "sec$Role",
          "id": "54e9071b-dc8a-a55c-947f-ba6c23d1deb8"
        },
        "type": "ENTITY_ATTR",
        "version": 1,
        "value": 2,
        "target": "sec$Group:sysTenantId"
      },
      {
        "_entityName": "sec$Permission",
        "id": "f9aed7ef-172a-cdf9-2165-f25fc8e49dc3",
        "role": {
          "_entityName": "sec$Role",
          "id": "54e9071b-dc8a-a55c-947f-ba6c23d1deb8"
        },
        "type": "ENTITY_ATTR",
        "version": 1,
        "value": 2,
        "target": "sec$Group:createTs"
      },
      {
        "_entityName": "sec$Permission",
        "id": "a200d783-75e3-3720-5770-682d983351bb",
        "role": {
          "_entityName": "sec$Role",
          "id": "54e9071b-dc8a-a55c-947f-ba6c23d1deb8"
        },
        "type": "ENTITY_ATTR",
        "version": 1,
        "value": 2,
        "target": "centralinfo_Users:updatedBy"
      },
      {
        "_entityName": "sec$Permission",
        "id": "b213486d-53c7-2c56-a383-1dbab02d7c6d",
        "role": {
          "_entityName": "sec$Role",
          "id": "54e9071b-dc8a-a55c-947f-ba6c23d1deb8"
        },
        "type": "ENTITY_OP",
        "version": 1,
        "value": 1,
        "target": "centralinfo_Users:read"
      },
      {
        "_entityName": "sec$Permission",
        "id": "7ae90708-6bf1-5ee3-75ef-485e40ec5938",
        "role": {
          "_entityName": "sec$Role",
          "id": "54e9071b-dc8a-a55c-947f-ba6c23d1deb8"
        },
        "type": "ENTITY_ATTR",
        "version": 1,
        "value": 2,
        "target": "sec$User:version"
      },
      {
        "_entityName": "sec$Permission",
        "id": "3327a5ce-8b96-7dcd-81e3-fd643650bffd",
        "role": {
          "_entityName": "sec$Role",
          "id": "54e9071b-dc8a-a55c-947f-ba6c23d1deb8"
        },
        "type": "UI",
        "version": 1,
        "value": 0,
        "target": "centralinfo_Users.edit:addRole"
      },
      {
        "_entityName": "sec$Permission",
        "id": "9873e0ab-37f7-4e42-85b9-526f26527072",
        "role": {
          "_entityName": "sec$Role",
          "id": "54e9071b-dc8a-a55c-947f-ba6c23d1deb8"
        },
        "type": "ENTITY_ATTR",
        "version": 1,
        "value": 2,
        "target": "centralinfo_Users:updateTs"
      },
      {
        "_entityName": "sec$Permission",
        "id": "63854622-9826-1b9c-03bf-eb585d90baf7",
        "role": {
          "_entityName": "sec$Role",
          "id": "54e9071b-dc8a-a55c-947f-ba6c23d1deb8"
        },
        "type": "SCREEN",
        "version": 1,
        "value": 0,
        "target": "centralinfo_Customer.browse"
      },
      {
        "_entityName": "sec$Permission",
        "id": "f383cf45-8bdc-2702-6df9-9dfa39c07546",
        "role": {
          "_entityName": "sec$Role",
          "id": "54e9071b-dc8a-a55c-947f-ba6c23d1deb8"
        },
        "type": "ENTITY_ATTR",
        "version": 1,
        "value": 2,
        "target": "centralinfo_Users:active"
      },
      {
        "_entityName": "sec$Permission",
        "id": "65308205-ff5e-b83c-7e2f-53a0a206c440",
        "role": {
          "_entityName": "sec$Role",
          "id": "54e9071b-dc8a-a55c-947f-ba6c23d1deb8"
        },
        "type": "UI",
        "version": 1,
        "value": 0,
        "target": "centralinfo_Users.browse:editBtn"
      },
      {
        "_entityName": "sec$Permission",
        "id": "71ed4c88-7c2e-acd3-a6cb-d1032b8f3b7b",
        "role": {
          "_entityName": "sec$Role",
          "id": "54e9071b-dc8a-a55c-947f-ba6c23d1deb8"
        },
        "type": "ENTITY_ATTR",
        "version": 1,
        "value": 2,
        "target": "centralinfo_Users:status"
      },
      {
        "_entityName": "sec$Permission",
        "id": "2ead7387-bf50-0d04-b100-89cd7f396b2c",
        "role": {
          "_entityName": "sec$Role",
          "id": "54e9071b-dc8a-a55c-947f-ba6c23d1deb8"
        },
        "type": "ENTITY_ATTR",
        "version": 1,
        "value": 2,
        "target": "centralinfo_Users:version"
      },
      {
        "_entityName": "sec$Permission",
        "id": "e9506958-8cee-59ae-36c6-f519fe758345",
        "role": {
          "_entityName": "sec$Role",
          "id": "54e9071b-dc8a-a55c-947f-ba6c23d1deb8"
        },
        "type": "ENTITY_ATTR",
        "version": 1,
        "value": 2,
        "target": "sec$Group:constraints"
      },
      {
        "_entityName": "sec$Permission",
        "id": "f8e52298-2300-c4e9-ccaf-9dad9be67cdb",
        "role": {
          "_entityName": "sec$Role",
          "id": "54e9071b-dc8a-a55c-947f-ba6c23d1deb8"
        },
        "type": "ENTITY_ATTR",
        "version": 1,
        "value": 2,
        "target": "sec$User:lastName"
      },
      {
        "_entityName": "sec$Permission",
        "id": "e162e791-7975-9b14-c9b1-44fc884a1725",
        "role": {
          "_entityName": "sec$Role",
          "id": "54e9071b-dc8a-a55c-947f-ba6c23d1deb8"
        },
        "type": "UI",
        "version": 1,
        "value": 0,
        "target": "centralinfo_Users.browse:createBtn"
      },
      {
        "_entityName": "sec$Permission",
        "id": "5fb01e6f-ac91-d7cd-dbd2-ec068e958573",
        "role": {
          "_entityName": "sec$Role",
          "id": "54e9071b-dc8a-a55c-947f-ba6c23d1deb8"
        },
        "type": "SCREEN",
        "version": 1,
        "value": 1,
        "target": "centralinfo_Users.browse"
      },
      {
        "_entityName": "sec$Permission",
        "id": "8edb527d-27e1-694e-d8d6-dd267aeb9aa1",
        "role": {
          "_entityName": "sec$Role",
          "id": "54e9071b-dc8a-a55c-947f-ba6c23d1deb8"
        },
        "type": "ENTITY_ATTR",
        "version": 1,
        "value": 2,
        "target": "sec$User:position"
      },
      {
        "_entityName": "sec$Permission",
        "id": "4295b3bc-56ba-bae1-49fd-1b8607d9b263",
        "role": {
          "_entityName": "sec$Role",
          "id": "54e9071b-dc8a-a55c-947f-ba6c23d1deb8"
        },
        "type": "ENTITY_ATTR",
        "version": 1,
        "value": 2,
        "target": "sec$User:deletedBy"
      },
      {
        "_entityName": "sec$Permission",
        "id": "7c20fc67-22e4-e199-7d2e-0b12505ae5ef",
        "role": {
          "_entityName": "sec$Role",
          "id": "54e9071b-dc8a-a55c-947f-ba6c23d1deb8"
        },
        "type": "ENTITY_ATTR",
        "version": 1,
        "value": 2,
        "target": "centralinfo_UserRole:updateTs"
      },
      {
        "_entityName": "sec$Permission",
        "id": "a31ab74b-0f46-e70f-86a0-f3cb801af8dc",
        "role": {
          "_entityName": "sec$Role",
          "id": "54e9071b-dc8a-a55c-947f-ba6c23d1deb8"
        },
        "type": "ENTITY_OP",
        "version": 1,
        "value": 1,
        "target": "centralinfo_Users:delete"
      },
      {
        "_entityName": "sec$Permission",
        "id": "52a58ce4-2732-e607-d9b1-a0744f376731",
        "role": {
          "_entityName": "sec$Role",
          "id": "54e9071b-dc8a-a55c-947f-ba6c23d1deb8"
        },
        "type": "UI",
        "version": 1,
        "value": 0,
        "target": "centralinfo_Users.edit:removeRole"
      },
      {
        "_entityName": "sec$Permission",
        "id": "3964c069-92cf-bb4e-58ee-fc893ea077f0",
        "role": {
          "_entityName": "sec$Role",
          "id": "54e9071b-dc8a-a55c-947f-ba6c23d1deb8"
        },
        "type": "SCREEN",
        "version": 1,
        "value": 0,
        "target": "centralinfo_CustomerBase.browse"
      },
      {
        "_entityName": "sec$Permission",
        "id": "d9717bf1-5f9a-49c8-a022-1e16960c1356",
        "role": {
          "_entityName": "sec$Role",
          "id": "54e9071b-dc8a-a55c-947f-ba6c23d1deb8"
        },
        "type": "ENTITY_ATTR",
        "version": 1,
        "value": 2,
        "target": "centralinfo_Users:group"
      },
      {
        "_entityName": "sec$Permission",
        "id": "431e3ce5-1b22-6502-f146-b7758b37fe62",
        "role": {
          "_entityName": "sec$Role",
          "id": "54e9071b-dc8a-a55c-947f-ba6c23d1deb8"
        },
        "type": "SCREEN",
        "version": 1,
        "value": 0,
        "target": "centralinfo_CustomerSuppliers.browse"
      },
      {
        "_entityName": "sec$Permission",
        "id": "82cec289-ca51-61d2-94b4-f8f6b9bc5685",
        "role": {
          "_entityName": "sec$Role",
          "id": "54e9071b-dc8a-a55c-947f-ba6c23d1deb8"
        },
        "type": "ENTITY_ATTR",
        "version": 1,
        "value": 2,
        "target": "centralinfo_Users:id"
      },
      {
        "_entityName": "sec$Permission",
        "id": "f7085768-797c-a835-15c8-19429e4a0828",
        "role": {
          "_entityName": "sec$Role",
          "id": "54e9071b-dc8a-a55c-947f-ba6c23d1deb8"
        },
        "type": "ENTITY_ATTR",
        "version": 1,
        "value": 2,
        "target": "centralinfo_UserRole:deleteTs"
      },
      {
        "_entityName": "sec$Permission",
        "id": "8676ff9c-3510-baa6-bae8-952b32643838",
        "role": {
          "_entityName": "sec$Role",
          "id": "54e9071b-dc8a-a55c-947f-ba6c23d1deb8"
        },
        "type": "SCREEN",
        "version": 1,
        "value": 0,
        "target": "centralinfo_AgentBank.browse"
      },
      {
        "_entityName": "sec$Permission",
        "id": "ec35a260-d8e6-39bc-622f-98337e742baf",
        "role": {
          "_entityName": "sec$Role",
          "id": "54e9071b-dc8a-a55c-947f-ba6c23d1deb8"
        },
        "type": "ENTITY_OP",
        "version": 1,
        "value": 1,
        "target": "sec$Role:create"
      },
      {
        "_entityName": "sec$Permission",
        "id": "9d7b3292-62e7-fb71-dd5b-e87fdef7f764",
        "role": {
          "_entityName": "sec$Role",
          "id": "54e9071b-dc8a-a55c-947f-ba6c23d1deb8"
        },
        "type": "ENTITY_ATTR",
        "version": 1,
        "value": 2,
        "target": "sec$Role:deleteTs"
      },
      {
        "_entityName": "sec$Permission",
        "id": "31e4d250-d963-61d2-a490-22ef79624fd1",
        "role": {
          "_entityName": "sec$Role",
          "id": "54e9071b-dc8a-a55c-947f-ba6c23d1deb8"
        },
        "type": "SCREEN",
        "version": 1,
        "value": 0,
        "target": "centralinfo_CustomerJionedLoan.browse"
      },
      {
        "_entityName": "sec$Permission",
        "id": "2745baa2-ef07-8904-8ea0-4efe08a16dd0",
        "role": {
          "_entityName": "sec$Role",
          "id": "54e9071b-dc8a-a55c-947f-ba6c23d1deb8"
        },
        "type": "ENTITY_OP",
        "version": 1,
        "value": 1,
        "target": "sec$Group:read"
      },
      {
        "_entityName": "sec$Permission",
        "id": "f6cf7a7e-a6a4-8bac-6bdb-0f1689a95016",
        "role": {
          "_entityName": "sec$Role",
          "id": "54e9071b-dc8a-a55c-947f-ba6c23d1deb8"
        },
        "type": "ENTITY_ATTR",
        "version": 1,
        "value": 2,
        "target": "sec$Group:deleteTs"
      },
      {
        "_entityName": "sec$Permission",
        "id": "35cb2f91-2a1c-9b2f-1dc2-f6d5d7e18253",
        "role": {
          "_entityName": "sec$Role",
          "id": "54e9071b-dc8a-a55c-947f-ba6c23d1deb8"
        },
        "type": "SCREEN",
        "version": 1,
        "value": 0,
        "target": "centralinformation_Branch.browse"
      },
      {
        "_entityName": "sec$Permission",
        "id": "9656bee4-9dfa-2546-6906-4172bc5d74eb",
        "role": {
          "_entityName": "sec$Role",
          "id": "54e9071b-dc8a-a55c-947f-ba6c23d1deb8"
        },
        "type": "ENTITY_OP",
        "version": 1,
        "value": 1,
        "target": "centralinfo_Users:update"
      },
      {
        "_entityName": "sec$Permission",
        "id": "789bcdb5-0f58-c590-4603-ba4f9472a017",
        "role": {
          "_entityName": "sec$Role",
          "id": "54e9071b-dc8a-a55c-947f-ba6c23d1deb8"
        },
        "type": "ENTITY_ATTR",
        "version": 1,
        "value": 2,
        "target": "sec$User:login"
      },
      {
        "_entityName": "sec$Permission",
        "id": "67eb47a5-543d-f8eb-c819-8ce78e3f6096",
        "role": {
          "_entityName": "sec$Role",
          "id": "54e9071b-dc8a-a55c-947f-ba6c23d1deb8"
        },
        "type": "ENTITY_OP",
        "version": 1,
        "value": 1,
        "target": "sec$Role:update"
      },
      {
        "_entityName": "sec$Permission",
        "id": "fdd67bdd-2335-9948-d564-be0a2788a140",
        "role": {
          "_entityName": "sec$Role",
          "id": "54e9071b-dc8a-a55c-947f-ba6c23d1deb8"
        },
        "type": "ENTITY_ATTR",
        "version": 1,
        "value": 2,
        "target": "sec$Group:parent"
      },
      {
        "_entityName": "sec$Permission",
        "id": "a542fc8c-2e83-5525-1f59-58c74dc696e1",
        "role": {
          "_entityName": "sec$Role",
          "id": "54e9071b-dc8a-a55c-947f-ba6c23d1deb8"
        },
        "type": "ENTITY_ATTR",
        "version": 1,
        "value": 2,
        "target": "centralinfo_UserRole:users"
      },
      {
        "_entityName": "sec$Permission",
        "id": "e4273f01-f28b-78a3-14d0-a95ad3dcb38a",
        "role": {
          "_entityName": "sec$Role",
          "id": "54e9071b-dc8a-a55c-947f-ba6c23d1deb8"
        },
        "type": "UI",
        "version": 1,
        "value": 0,
        "target": "centralinfo_Users.browse:removeBtn"
      },
      {
        "_entityName": "sec$Permission",
        "id": "e24ed321-e2ae-b827-e65f-1394d5a7ad59",
        "role": {
          "_entityName": "sec$Role",
          "id": "54e9071b-dc8a-a55c-947f-ba6c23d1deb8"
        },
        "type": "ENTITY_OP",
        "version": 1,
        "value": 1,
        "target": "centralinfo_UserRole:read"
      },
      {
        "_entityName": "sec$Permission",
        "id": "ef1997ac-a9ca-52f3-3128-302bae9863c2",
        "role": {
          "_entityName": "sec$Role",
          "id": "54e9071b-dc8a-a55c-947f-ba6c23d1deb8"
        },
        "type": "ENTITY_ATTR",
        "version": 1,
        "value": 2,
        "target": "sec$Role:updateTs"
      },
      {
        "_entityName": "sec$Permission",
        "id": "5f4c84b6-b81b-0505-d85a-8efcf409c892",
        "role": {
          "_entityName": "sec$Role",
          "id": "54e9071b-dc8a-a55c-947f-ba6c23d1deb8"
        },
        "type": "ENTITY_ATTR",
        "version": 1,
        "value": 2,
        "target": "sec$User:sysTenantId"
      },
      {
        "_entityName": "sec$Permission",
        "id": "238cf4ab-946e-87db-6f1a-aa557be85fec",
        "role": {
          "_entityName": "sec$Role",
          "id": "54e9071b-dc8a-a55c-947f-ba6c23d1deb8"
        },
        "type": "UI",
        "version": 1,
        "value": 0,
        "target": "centralinfo_Users.edit:saveBtn"
      },
      {
        "_entityName": "sec$Permission",
        "id": "0a847a01-643c-1a2b-8126-2af8533db7aa",
        "role": {
          "_entityName": "sec$Role",
          "id": "54e9071b-dc8a-a55c-947f-ba6c23d1deb8"
        },
        "type": "SCREEN",
        "version": 1,
        "value": 0,
        "target": "centralinfo_DigitalEvaluation.browse"
      },
      {
        "_entityName": "sec$Permission",
        "id": "6224fa00-a40d-e495-fbc8-96a0bfb979b2",
        "role": {
          "_entityName": "sec$Role",
          "id": "54e9071b-dc8a-a55c-947f-ba6c23d1deb8"
        },
        "type": "ENTITY_ATTR",
        "version": 1,
        "value": 2,
        "target": "sec$User:timeZone"
      },
      {
        "_entityName": "sec$Permission",
        "id": "fc695916-64ad-fcd5-ad17-57da8c082b22",
        "role": {
          "_entityName": "sec$Role",
          "id": "54e9071b-dc8a-a55c-947f-ba6c23d1deb8"
        },
        "type": "SCREEN",
        "version": 1,
        "value": 0,
        "target": "reports"
      },
      {
        "_entityName": "sec$Permission",
        "id": "3858cc7a-365f-a558-567d-b357ca90a57c",
        "role": {
          "_entityName": "sec$Role",
          "id": "54e9071b-dc8a-a55c-947f-ba6c23d1deb8"
        },
        "type": "ENTITY_ATTR",
        "version": 1,
        "value": 2,
        "target": "sec$User:substitutions"
      },
      {
        "_entityName": "sec$Permission",
        "id": "5708efa7-32c9-6b32-ca13-763ef166eefa",
        "role": {
          "_entityName": "sec$Role",
          "id": "54e9071b-dc8a-a55c-947f-ba6c23d1deb8"
        },
        "type": "ENTITY_ATTR",
        "version": 1,
        "value": 2,
        "target": "sec$User:updatedBy"
      },
      {
        "_entityName": "sec$Permission",
        "id": "e2e2c8b3-c334-3708-2219-ec796c5aa5b1",
        "role": {
          "_entityName": "sec$Role",
          "id": "54e9071b-dc8a-a55c-947f-ba6c23d1deb8"
        },
        "type": "ENTITY_ATTR",
        "version": 1,
        "value": 2,
        "target": "sec$Role:defaultRole"
      },
      {
        "_entityName": "sec$Permission",
        "id": "f6e3a973-4f2d-f050-b839-0320906d287f",
        "role": {
          "_entityName": "sec$Role",
          "id": "54e9071b-dc8a-a55c-947f-ba6c23d1deb8"
        },
        "type": "ENTITY_ATTR",
        "version": 1,
        "value": 2,
        "target": "sec$Role:securityScope"
      },
      {
        "_entityName": "sec$Permission",
        "id": "cfab1422-7638-ee92-3656-5e7cb64890a7",
        "role": {
          "_entityName": "sec$Role",
          "id": "54e9071b-dc8a-a55c-947f-ba6c23d1deb8"
        },
        "type": "ENTITY_OP",
        "version": 1,
        "value": 1,
        "target": "centralinfo_UserRole:delete"
      },
      {
        "_entityName": "sec$Permission",
        "id": "e9f334bb-5145-5d6b-47f2-fcf64eac7928",
        "role": {
          "_entityName": "sec$Role",
          "id": "54e9071b-dc8a-a55c-947f-ba6c23d1deb8"
        },
        "type": "ENTITY_ATTR",
        "version": 1,
        "value": 2,
        "target": "sec$User:updateTs"
      },
      {
        "_entityName": "sec$Permission",
        "id": "758cb645-c957-2014-d766-65832ea6ae2e",
        "role": {
          "_entityName": "sec$Role",
          "id": "54e9071b-dc8a-a55c-947f-ba6c23d1deb8"
        },
        "type": "ENTITY_ATTR",
        "version": 1,
        "value": 2,
        "target": "sec$Group:updatedBy"
      },
      {
        "_entityName": "sec$Permission",
        "id": "f391d8ed-6216-3d5e-0efd-8115631f7024",
        "role": {
          "_entityName": "sec$Role",
          "id": "54e9071b-dc8a-a55c-947f-ba6c23d1deb8"
        },
        "type": "ENTITY_OP",
        "version": 1,
        "value": 1,
        "target": "sec$Role:delete"
      },
      {
        "_entityName": "sec$Permission",
        "id": "94b82238-91b3-4481-590f-1a9c5c19abd4",
        "role": {
          "_entityName": "sec$Role",
          "id": "54e9071b-dc8a-a55c-947f-ba6c23d1deb8"
        },
        "type": "ENTITY_OP",
        "version": 1,
        "value": 1,
        "target": "centralinfo_UserRole:update"
      },
      {
        "_entityName": "sec$Permission",
        "id": "c6e0c23f-332a-3add-a311-4c26a9476bb5",
        "role": {
          "_entityName": "sec$Role",
          "id": "54e9071b-dc8a-a55c-947f-ba6c23d1deb8"
        },
        "type": "ENTITY_OP",
        "version": 1,
        "value": 1,
        "target": "sec$Group:update"
      },
      {
        "_entityName": "sec$Permission",
        "id": "21451da0-8761-dc3a-e5fa-300275b38d1b",
        "role": {
          "_entityName": "sec$Role",
          "id": "54e9071b-dc8a-a55c-947f-ba6c23d1deb8"
        },
        "type": "ENTITY_ATTR",
        "version": 1,
        "value": 2,
        "target": "sec$User:createdBy"
      },
      {
        "_entityName": "sec$Permission",
        "id": "cd4bf6f9-28d9-d6e9-04a6-e67bb6ca0b65",
        "role": {
          "_entityName": "sec$Role",
          "id": "54e9071b-dc8a-a55c-947f-ba6c23d1deb8"
        },
        "type": "ENTITY_ATTR",
        "version": 1,
        "value": 2,
        "target": "sec$Role:createTs"
      },
      {
        "_entityName": "sec$Permission",
        "id": "5d1725ac-32ea-4bcc-c313-cfde940220a6",
        "role": {
          "_entityName": "sec$Role",
          "id": "54e9071b-dc8a-a55c-947f-ba6c23d1deb8"
        },
        "type": "ENTITY_ATTR",
        "version": 1,
        "value": 2,
        "target": "sec$Role:createdBy"
      },
      {
        "_entityName": "sec$Permission",
        "id": "ee67f80f-d4b2-6897-3342-0faddf1d1d42",
        "role": {
          "_entityName": "sec$Role",
          "id": "54e9071b-dc8a-a55c-947f-ba6c23d1deb8"
        },
        "type": "ENTITY_ATTR",
        "version": 1,
        "value": 2,
        "target": "sec$Role:type"
      },
      {
        "_entityName": "sec$Permission",
        "id": "fb17d0f7-f377-469f-4a1e-6b9978d64ea4",
        "role": {
          "_entityName": "sec$Role",
          "id": "54e9071b-dc8a-a55c-947f-ba6c23d1deb8"
        },
        "type": "ENTITY_ATTR",
        "version": 1,
        "value": 2,
        "target": "sec$User:firstName"
      },
      {
        "_entityName": "sec$Permission",
        "id": "dfbb9f7d-d4a7-d674-c495-6efcdbb8b63a",
        "role": {
          "_entityName": "sec$Role",
          "id": "54e9071b-dc8a-a55c-947f-ba6c23d1deb8"
        },
        "type": "SCREEN",
        "version": 1,
        "value": 0,
        "target": "centralinfo_IndebtedCustomers.browse"
      },
      {
        "_entityName": "sec$Permission",
        "id": "0ed33abc-dbdb-96d1-c36a-40c379f356c0",
        "role": {
          "_entityName": "sec$Role",
          "id": "54e9071b-dc8a-a55c-947f-ba6c23d1deb8"
        },
        "type": "SCREEN",
        "version": 1,
        "value": 0,
        "target": "centralinfo_Debt_Settlements.browse"
      },
      {
        "_entityName": "sec$Permission",
        "id": "5ac6eeea-0a51-7b21-c5da-23d7006431ca",
        "role": {
          "_entityName": "sec$Role",
          "id": "54e9071b-dc8a-a55c-947f-ba6c23d1deb8"
        },
        "type": "ENTITY_ATTR",
        "version": 1,
        "value": 2,
        "target": "sec$Group:id"
      }
    ],
    "name": "SMS_Checker"
  }
]